\ STM32F7x6 Register Print file for Mecrisp-Stellaris Forth by Matthias Koch
\ By Terry Porter "terry@tjporter.com.au"

: RNG. cr
." RNG_CR: " RNG_CR @ hex. cr
." RNG_SR: " RNG_SR @ hex. cr
." RNG_DR: " RNG_DR @ hex. cr
;

: HASH. cr
." HASH_CR: " HASH_CR @ hex. cr
." HASH_DIN: " HASH_DIN @ hex. cr
." HASH_STR: " HASH_STR @ hex. cr
." HASH_HR0: " HASH_HR0 @ hex. cr
." HASH_HR1: " HASH_HR1 @ hex. cr
." HASH_HR2: " HASH_HR2 @ hex. cr
." HASH_HR3: " HASH_HR3 @ hex. cr
." HASH_HR4: " HASH_HR4 @ hex. cr
." HASH_IMR: " HASH_IMR @ hex. cr
." HASH_SR: " HASH_SR @ hex. cr
." HASH_CSR0: " HASH_CSR0 @ hex. cr
." HASH_CSR1: " HASH_CSR1 @ hex. cr
." HASH_CSR2: " HASH_CSR2 @ hex. cr
." HASH_CSR3: " HASH_CSR3 @ hex. cr
." HASH_CSR4: " HASH_CSR4 @ hex. cr
." HASH_CSR5: " HASH_CSR5 @ hex. cr
." HASH_CSR6: " HASH_CSR6 @ hex. cr
." HASH_CSR7: " HASH_CSR7 @ hex. cr
." HASH_CSR8: " HASH_CSR8 @ hex. cr
." HASH_CSR9: " HASH_CSR9 @ hex. cr
." HASH_CSR10: " HASH_CSR10 @ hex. cr
." HASH_CSR11: " HASH_CSR11 @ hex. cr
." HASH_CSR12: " HASH_CSR12 @ hex. cr
." HASH_CSR13: " HASH_CSR13 @ hex. cr
." HASH_CSR14: " HASH_CSR14 @ hex. cr
." HASH_CSR15: " HASH_CSR15 @ hex. cr
." HASH_CSR16: " HASH_CSR16 @ hex. cr
." HASH_CSR17: " HASH_CSR17 @ hex. cr
." HASH_CSR18: " HASH_CSR18 @ hex. cr
." HASH_CSR19: " HASH_CSR19 @ hex. cr
." HASH_CSR20: " HASH_CSR20 @ hex. cr
." HASH_CSR21: " HASH_CSR21 @ hex. cr
." HASH_CSR22: " HASH_CSR22 @ hex. cr
." HASH_CSR23: " HASH_CSR23 @ hex. cr
." HASH_CSR24: " HASH_CSR24 @ hex. cr
." HASH_CSR25: " HASH_CSR25 @ hex. cr
." HASH_CSR26: " HASH_CSR26 @ hex. cr
." HASH_CSR27: " HASH_CSR27 @ hex. cr
." HASH_CSR28: " HASH_CSR28 @ hex. cr
." HASH_CSR29: " HASH_CSR29 @ hex. cr
." HASH_CSR30: " HASH_CSR30 @ hex. cr
." HASH_CSR31: " HASH_CSR31 @ hex. cr
." HASH_CSR32: " HASH_CSR32 @ hex. cr
." HASH_CSR33: " HASH_CSR33 @ hex. cr
." HASH_CSR34: " HASH_CSR34 @ hex. cr
." HASH_CSR35: " HASH_CSR35 @ hex. cr
." HASH_CSR36: " HASH_CSR36 @ hex. cr
." HASH_CSR37: " HASH_CSR37 @ hex. cr
." HASH_CSR38: " HASH_CSR38 @ hex. cr
." HASH_CSR39: " HASH_CSR39 @ hex. cr
." HASH_CSR40: " HASH_CSR40 @ hex. cr
." HASH_CSR41: " HASH_CSR41 @ hex. cr
." HASH_CSR42: " HASH_CSR42 @ hex. cr
." HASH_CSR43: " HASH_CSR43 @ hex. cr
." HASH_CSR44: " HASH_CSR44 @ hex. cr
." HASH_CSR45: " HASH_CSR45 @ hex. cr
." HASH_CSR46: " HASH_CSR46 @ hex. cr
." HASH_CSR47: " HASH_CSR47 @ hex. cr
." HASH_CSR48: " HASH_CSR48 @ hex. cr
." HASH_CSR49: " HASH_CSR49 @ hex. cr
." HASH_CSR50: " HASH_CSR50 @ hex. cr
." HASH_CSR51: " HASH_CSR51 @ hex. cr
." HASH_CSR52: " HASH_CSR52 @ hex. cr
." HASH_CSR53: " HASH_CSR53 @ hex. cr
." HASH_HASH_HR0: " HASH_HASH_HR0 @ hex. cr
." HASH_HASH_HR1: " HASH_HASH_HR1 @ hex. cr
." HASH_HASH_HR2: " HASH_HASH_HR2 @ hex. cr
." HASH_HASH_HR3: " HASH_HASH_HR3 @ hex. cr
." HASH_HASH_HR4: " HASH_HASH_HR4 @ hex. cr
." HASH_HASH_HR5: " HASH_HASH_HR5 @ hex. cr
." HASH_HASH_HR6: " HASH_HASH_HR6 @ hex. cr
." HASH_HASH_HR7: " HASH_HASH_HR7 @ hex. cr
;

: CRYP. cr
." CRYP_CR: " CRYP_CR @ hex. cr
." CRYP_SR: " CRYP_SR @ hex. cr
." CRYP_DIN: " CRYP_DIN @ hex. cr
." CRYP_DOUT: " CRYP_DOUT @ hex. cr
." CRYP_DMACR: " CRYP_DMACR @ hex. cr
." CRYP_IMSCR: " CRYP_IMSCR @ hex. cr
." CRYP_RISR: " CRYP_RISR @ hex. cr
." CRYP_MISR: " CRYP_MISR @ hex. cr
." CRYP_K0LR: " CRYP_K0LR @ hex. cr
." CRYP_K0RR: " CRYP_K0RR @ hex. cr
." CRYP_K1LR: " CRYP_K1LR @ hex. cr
." CRYP_K1RR: " CRYP_K1RR @ hex. cr
." CRYP_K2LR: " CRYP_K2LR @ hex. cr
." CRYP_K2RR: " CRYP_K2RR @ hex. cr
." CRYP_K3LR: " CRYP_K3LR @ hex. cr
." CRYP_K3RR: " CRYP_K3RR @ hex. cr
." CRYP_IV0LR: " CRYP_IV0LR @ hex. cr
." CRYP_IV0RR: " CRYP_IV0RR @ hex. cr
." CRYP_IV1LR: " CRYP_IV1LR @ hex. cr
." CRYP_IV1RR: " CRYP_IV1RR @ hex. cr
." CRYP_CSGCMCCM0R: " CRYP_CSGCMCCM0R @ hex. cr
." CRYP_CSGCMCCM1R: " CRYP_CSGCMCCM1R @ hex. cr
." CRYP_CSGCMCCM2R: " CRYP_CSGCMCCM2R @ hex. cr
." CRYP_CSGCMCCM3R: " CRYP_CSGCMCCM3R @ hex. cr
." CRYP_CSGCMCCM4R: " CRYP_CSGCMCCM4R @ hex. cr
." CRYP_CSGCMCCM5R: " CRYP_CSGCMCCM5R @ hex. cr
." CRYP_CSGCMCCM6R: " CRYP_CSGCMCCM6R @ hex. cr
." CRYP_CSGCMCCM7R: " CRYP_CSGCMCCM7R @ hex. cr
." CRYP_CSGCM0R: " CRYP_CSGCM0R @ hex. cr
." CRYP_CSGCM1R: " CRYP_CSGCM1R @ hex. cr
." CRYP_CSGCM2R: " CRYP_CSGCM2R @ hex. cr
." CRYP_CSGCM3R: " CRYP_CSGCM3R @ hex. cr
." CRYP_CSGCM4R: " CRYP_CSGCM4R @ hex. cr
." CRYP_CSGCM5R: " CRYP_CSGCM5R @ hex. cr
." CRYP_CSGCM6R: " CRYP_CSGCM6R @ hex. cr
." CRYP_CSGCM7R: " CRYP_CSGCM7R @ hex. cr
;

: DCMI. cr
." DCMI_CR: " DCMI_CR @ hex. cr
." DCMI_SR: " DCMI_SR @ hex. cr
." DCMI_RIS: " DCMI_RIS @ hex. cr
." DCMI_IER: " DCMI_IER @ hex. cr
." DCMI_MIS: " DCMI_MIS @ hex. cr
." DCMI_ICR: " DCMI_ICR @ hex. cr
." DCMI_ESCR: " DCMI_ESCR @ hex. cr
." DCMI_ESUR: " DCMI_ESUR @ hex. cr
." DCMI_CWSTRT: " DCMI_CWSTRT @ hex. cr
." DCMI_CWSIZE: " DCMI_CWSIZE @ hex. cr
." DCMI_DR: " DCMI_DR @ hex. cr
;

: FMC. cr
." FMC_BCR1: " FMC_BCR1 @ hex. cr
." FMC_BTR1: " FMC_BTR1 @ hex. cr
." FMC_BCR2: " FMC_BCR2 @ hex. cr
." FMC_BTR2: " FMC_BTR2 @ hex. cr
." FMC_BCR3: " FMC_BCR3 @ hex. cr
." FMC_BTR3: " FMC_BTR3 @ hex. cr
." FMC_BCR4: " FMC_BCR4 @ hex. cr
." FMC_BTR4: " FMC_BTR4 @ hex. cr
." FMC_PCR: " FMC_PCR @ hex. cr
." FMC_SR: " FMC_SR @ hex. cr
." FMC_PMEM: " FMC_PMEM @ hex. cr
." FMC_PATT: " FMC_PATT @ hex. cr
." FMC_ECCR: " FMC_ECCR @ hex. cr
." FMC_BWTR1: " FMC_BWTR1 @ hex. cr
." FMC_BWTR2: " FMC_BWTR2 @ hex. cr
." FMC_BWTR3: " FMC_BWTR3 @ hex. cr
." FMC_BWTR4: " FMC_BWTR4 @ hex. cr
." FMC_SDCR1: " FMC_SDCR1 @ hex. cr
." FMC_SDCR2: " FMC_SDCR2 @ hex. cr
." FMC_SDTR1: " FMC_SDTR1 @ hex. cr
." FMC_SDTR2: " FMC_SDTR2 @ hex. cr
." FMC_SDCMR: " FMC_SDCMR @ hex. cr
." FMC_SDRTR: " FMC_SDRTR @ hex. cr
." FMC_SDSR: " FMC_SDSR @ hex. cr
;

: DBG. cr
." DBG_DBGMCU_IDCODE: " DBG_DBGMCU_IDCODE @ hex. cr
." DBG_DBGMCU_CR: " DBG_DBGMCU_CR @ hex. cr
." DBG_DBGMCU_APB1_FZ: " DBG_DBGMCU_APB1_FZ @ hex. cr
." DBG_DBGMCU_APB2_FZ: " DBG_DBGMCU_APB2_FZ @ hex. cr
;

: DMA2. cr
." DMA2_LISR: " DMA2_LISR @ hex. cr
." DMA2_HISR: " DMA2_HISR @ hex. cr
." DMA2_LIFCR: " DMA2_LIFCR @ hex. cr
." DMA2_HIFCR: " DMA2_HIFCR @ hex. cr
." DMA2_S0CR: " DMA2_S0CR @ hex. cr
." DMA2_S0NDTR: " DMA2_S0NDTR @ hex. cr
." DMA2_S0PAR: " DMA2_S0PAR @ hex. cr
." DMA2_S0M0AR: " DMA2_S0M0AR @ hex. cr
." DMA2_S0M1AR: " DMA2_S0M1AR @ hex. cr
." DMA2_S0FCR: " DMA2_S0FCR @ hex. cr
." DMA2_S1CR: " DMA2_S1CR @ hex. cr
." DMA2_S1NDTR: " DMA2_S1NDTR @ hex. cr
." DMA2_S1PAR: " DMA2_S1PAR @ hex. cr
." DMA2_S1M0AR: " DMA2_S1M0AR @ hex. cr
." DMA2_S1M1AR: " DMA2_S1M1AR @ hex. cr
." DMA2_S1FCR: " DMA2_S1FCR @ hex. cr
." DMA2_S2CR: " DMA2_S2CR @ hex. cr
." DMA2_S2NDTR: " DMA2_S2NDTR @ hex. cr
." DMA2_S2PAR: " DMA2_S2PAR @ hex. cr
." DMA2_S2M0AR: " DMA2_S2M0AR @ hex. cr
." DMA2_S2M1AR: " DMA2_S2M1AR @ hex. cr
." DMA2_S2FCR: " DMA2_S2FCR @ hex. cr
." DMA2_S3CR: " DMA2_S3CR @ hex. cr
." DMA2_S3NDTR: " DMA2_S3NDTR @ hex. cr
." DMA2_S3PAR: " DMA2_S3PAR @ hex. cr
." DMA2_S3M0AR: " DMA2_S3M0AR @ hex. cr
." DMA2_S3M1AR: " DMA2_S3M1AR @ hex. cr
." DMA2_S3FCR: " DMA2_S3FCR @ hex. cr
." DMA2_S4CR: " DMA2_S4CR @ hex. cr
." DMA2_S4NDTR: " DMA2_S4NDTR @ hex. cr
." DMA2_S4PAR: " DMA2_S4PAR @ hex. cr
." DMA2_S4M0AR: " DMA2_S4M0AR @ hex. cr
." DMA2_S4M1AR: " DMA2_S4M1AR @ hex. cr
." DMA2_S4FCR: " DMA2_S4FCR @ hex. cr
." DMA2_S5CR: " DMA2_S5CR @ hex. cr
." DMA2_S5NDTR: " DMA2_S5NDTR @ hex. cr
." DMA2_S5PAR: " DMA2_S5PAR @ hex. cr
." DMA2_S5M0AR: " DMA2_S5M0AR @ hex. cr
." DMA2_S5M1AR: " DMA2_S5M1AR @ hex. cr
." DMA2_S5FCR: " DMA2_S5FCR @ hex. cr
." DMA2_S6CR: " DMA2_S6CR @ hex. cr
." DMA2_S6NDTR: " DMA2_S6NDTR @ hex. cr
." DMA2_S6PAR: " DMA2_S6PAR @ hex. cr
." DMA2_S6M0AR: " DMA2_S6M0AR @ hex. cr
." DMA2_S6M1AR: " DMA2_S6M1AR @ hex. cr
." DMA2_S6FCR: " DMA2_S6FCR @ hex. cr
." DMA2_S7CR: " DMA2_S7CR @ hex. cr
." DMA2_S7NDTR: " DMA2_S7NDTR @ hex. cr
." DMA2_S7PAR: " DMA2_S7PAR @ hex. cr
." DMA2_S7M0AR: " DMA2_S7M0AR @ hex. cr
." DMA2_S7M1AR: " DMA2_S7M1AR @ hex. cr
." DMA2_S7FCR: " DMA2_S7FCR @ hex. cr
;

: DMA1. cr
;

: RCC. cr
." RCC_CR: " RCC_CR @ hex. cr
." RCC_PLLCFGR: " RCC_PLLCFGR @ hex. cr
." RCC_CFGR: " RCC_CFGR @ hex. cr
." RCC_CIR: " RCC_CIR @ hex. cr
." RCC_AHB1RSTR: " RCC_AHB1RSTR @ hex. cr
." RCC_AHB2RSTR: " RCC_AHB2RSTR @ hex. cr
." RCC_AHB3RSTR: " RCC_AHB3RSTR @ hex. cr
." RCC_APB1RSTR: " RCC_APB1RSTR @ hex. cr
." RCC_APB2RSTR: " RCC_APB2RSTR @ hex. cr
." RCC_AHB1ENR: " RCC_AHB1ENR @ hex. cr
." RCC_AHB2ENR: " RCC_AHB2ENR @ hex. cr
." RCC_AHB3ENR: " RCC_AHB3ENR @ hex. cr
." RCC_APB1ENR: " RCC_APB1ENR @ hex. cr
." RCC_APB2ENR: " RCC_APB2ENR @ hex. cr
." RCC_AHB1LPENR: " RCC_AHB1LPENR @ hex. cr
." RCC_AHB2LPENR: " RCC_AHB2LPENR @ hex. cr
." RCC_AHB3LPENR: " RCC_AHB3LPENR @ hex. cr
." RCC_APB1LPENR: " RCC_APB1LPENR @ hex. cr
." RCC_APB2LPENR: " RCC_APB2LPENR @ hex. cr
." RCC_BDCR: " RCC_BDCR @ hex. cr
." RCC_CSR: " RCC_CSR @ hex. cr
." RCC_SSCGR: " RCC_SSCGR @ hex. cr
." RCC_PLLI2SCFGR: " RCC_PLLI2SCFGR @ hex. cr
." RCC_PLLSAICFGR: " RCC_PLLSAICFGR @ hex. cr
." RCC_DKCFGR1: " RCC_DKCFGR1 @ hex. cr
." RCC_DKCFGR2: " RCC_DKCFGR2 @ hex. cr
;

: GPIOD. cr
." GPIOD_MODER: " GPIOD_MODER @ hex. cr
." GPIOD_OTYPER: " GPIOD_OTYPER @ hex. cr
." GPIOD_GPIOB_OSPEEDR: " GPIOD_GPIOB_OSPEEDR @ hex. cr
." GPIOD_PUPDR: " GPIOD_PUPDR @ hex. cr
." GPIOD_IDR: " GPIOD_IDR @ hex. cr
." GPIOD_ODR: " GPIOD_ODR @ hex. cr
." GPIOD_BSRR: " GPIOD_BSRR @ hex. cr
." GPIOD_LCKR: " GPIOD_LCKR @ hex. cr
." GPIOD_AFRL: " GPIOD_AFRL @ hex. cr
." GPIOD_AFRH: " GPIOD_AFRH @ hex. cr
." GPIOD_BRR: " GPIOD_BRR @ hex. cr
;

: GPIOC. cr
;

: GPIOK. cr
;

: GPIOJ. cr
;

: GPIOI. cr
;

: GPIOH. cr
;

: GPIOG. cr
;

: GPIOF. cr
;

: GPIOE. cr
;

: GPIOB. cr
." GPIOB_MODER: " GPIOB_MODER @ hex. cr
." GPIOB_OTYPER: " GPIOB_OTYPER @ hex. cr
." GPIOB_GPIOB_OSPEEDR: " GPIOB_GPIOB_OSPEEDR @ hex. cr
." GPIOB_PUPDR: " GPIOB_PUPDR @ hex. cr
." GPIOB_IDR: " GPIOB_IDR @ hex. cr
." GPIOB_ODR: " GPIOB_ODR @ hex. cr
." GPIOB_BSRR: " GPIOB_BSRR @ hex. cr
." GPIOB_LCKR: " GPIOB_LCKR @ hex. cr
." GPIOB_AFRL: " GPIOB_AFRL @ hex. cr
." GPIOB_AFRH: " GPIOB_AFRH @ hex. cr
." GPIOB_BRR: " GPIOB_BRR @ hex. cr
;

: GPIOA. cr
." GPIOA_MODER: " GPIOA_MODER @ hex. cr
." GPIOA_OTYPER: " GPIOA_OTYPER @ hex. cr
." GPIOA_GPIOB_OSPEEDR: " GPIOA_GPIOB_OSPEEDR @ hex. cr
." GPIOA_PUPDR: " GPIOA_PUPDR @ hex. cr
." GPIOA_IDR: " GPIOA_IDR @ hex. cr
." GPIOA_ODR: " GPIOA_ODR @ hex. cr
." GPIOA_BSRR: " GPIOA_BSRR @ hex. cr
." GPIOA_LCKR: " GPIOA_LCKR @ hex. cr
." GPIOA_AFRL: " GPIOA_AFRL @ hex. cr
." GPIOA_AFRH: " GPIOA_AFRH @ hex. cr
." GPIOA_BRR: " GPIOA_BRR @ hex. cr
;

: SYSCFG. cr
." SYSCFG_MEMRM: " SYSCFG_MEMRM @ hex. cr
." SYSCFG_PMC: " SYSCFG_PMC @ hex. cr
." SYSCFG_EXTICR1: " SYSCFG_EXTICR1 @ hex. cr
." SYSCFG_EXTICR2: " SYSCFG_EXTICR2 @ hex. cr
." SYSCFG_EXTICR3: " SYSCFG_EXTICR3 @ hex. cr
." SYSCFG_EXTICR4: " SYSCFG_EXTICR4 @ hex. cr
." SYSCFG_CMPCR: " SYSCFG_CMPCR @ hex. cr
;

: SPI1. cr
." SPI1_CR1: " SPI1_CR1 @ hex. cr
." SPI1_CR2: " SPI1_CR2 @ hex. cr
." SPI1_SR: " SPI1_SR @ hex. cr
." SPI1_DR: " SPI1_DR @ hex. cr
." SPI1_CRCPR: " SPI1_CRCPR @ hex. cr
." SPI1_RXCRCR: " SPI1_RXCRCR @ hex. cr
." SPI1_TXCRCR: " SPI1_TXCRCR @ hex. cr
." SPI1_I2SCFGR: " SPI1_I2SCFGR @ hex. cr
." SPI1_I2SPR: " SPI1_I2SPR @ hex. cr
;

: SPI2. cr
;

: SPI3. cr
;

: SPI4. cr
;

: SPI5. cr
;

: SPI6. cr
;

: ADC1. cr
." ADC1_SR: " ADC1_SR @ hex. cr
." ADC1_CR1: " ADC1_CR1 @ hex. cr
." ADC1_CR2: " ADC1_CR2 @ hex. cr
." ADC1_SMPR1: " ADC1_SMPR1 @ hex. cr
." ADC1_SMPR2: " ADC1_SMPR2 @ hex. cr
." ADC1_JOFR1: " ADC1_JOFR1 @ hex. cr
." ADC1_JOFR2: " ADC1_JOFR2 @ hex. cr
." ADC1_JOFR3: " ADC1_JOFR3 @ hex. cr
." ADC1_JOFR4: " ADC1_JOFR4 @ hex. cr
." ADC1_HTR: " ADC1_HTR @ hex. cr
." ADC1_LTR: " ADC1_LTR @ hex. cr
." ADC1_SQR1: " ADC1_SQR1 @ hex. cr
." ADC1_SQR2: " ADC1_SQR2 @ hex. cr
." ADC1_SQR3: " ADC1_SQR3 @ hex. cr
." ADC1_JSQR: " ADC1_JSQR @ hex. cr
." ADC1_JDR1: " ADC1_JDR1 @ hex. cr
." ADC1_JDR2: " ADC1_JDR2 @ hex. cr
." ADC1_JDR3: " ADC1_JDR3 @ hex. cr
." ADC1_JDR4: " ADC1_JDR4 @ hex. cr
." ADC1_DR: " ADC1_DR @ hex. cr
;

: ADC2. cr
;

: ADC3. cr
;

: DAC. cr
." DAC_CR: " DAC_CR @ hex. cr
." DAC_SWTRIGR: " DAC_SWTRIGR @ hex. cr
." DAC_DHR12R1: " DAC_DHR12R1 @ hex. cr
." DAC_DHR12L1: " DAC_DHR12L1 @ hex. cr
." DAC_DHR8R1: " DAC_DHR8R1 @ hex. cr
." DAC_DHR12R2: " DAC_DHR12R2 @ hex. cr
." DAC_DHR12L2: " DAC_DHR12L2 @ hex. cr
." DAC_DHR8R2: " DAC_DHR8R2 @ hex. cr
." DAC_DHR12RD: " DAC_DHR12RD @ hex. cr
." DAC_DHR12LD: " DAC_DHR12LD @ hex. cr
." DAC_DHR8RD: " DAC_DHR8RD @ hex. cr
." DAC_DOR1: " DAC_DOR1 @ hex. cr
." DAC_DOR2: " DAC_DOR2 @ hex. cr
." DAC_SR: " DAC_SR @ hex. cr
;

: PWR. cr
." PWR_CR1: " PWR_CR1 @ hex. cr
." PWR_CSR1: " PWR_CSR1 @ hex. cr
." PWR_CR2: " PWR_CR2 @ hex. cr
." PWR_CSR2: " PWR_CSR2 @ hex. cr
;

: IWDG. cr
." IWDG_KR: " IWDG_KR @ hex. cr
." IWDG_PR: " IWDG_PR @ hex. cr
." IWDG_RLR: " IWDG_RLR @ hex. cr
." IWDG_SR: " IWDG_SR @ hex. cr
." IWDG_WINR: " IWDG_WINR @ hex. cr
;

: WWDG. cr
." WWDG_CR: " WWDG_CR @ hex. cr
." WWDG_CFR: " WWDG_CFR @ hex. cr
." WWDG_SR: " WWDG_SR @ hex. cr
;

: C_ADC. cr
." C_ADC_CSR: " C_ADC_CSR @ hex. cr
." C_ADC_CCR: " C_ADC_CCR @ hex. cr
." C_ADC_CDR: " C_ADC_CDR @ hex. cr
;

: TIM1. cr
." TIM1_CR1: " TIM1_CR1 @ hex. cr
." TIM1_CR2: " TIM1_CR2 @ hex. cr
." TIM1_SMCR: " TIM1_SMCR @ hex. cr
." TIM1_DIER: " TIM1_DIER @ hex. cr
." TIM1_SR: " TIM1_SR @ hex. cr
." TIM1_EGR: " TIM1_EGR @ hex. cr
." TIM1_CCMR1_Output: " TIM1_CCMR1_Output @ hex. cr
." TIM1_CCMR1_Input: " TIM1_CCMR1_Input @ hex. cr
." TIM1_CCMR2_Output: " TIM1_CCMR2_Output @ hex. cr
." TIM1_CCMR2_Input: " TIM1_CCMR2_Input @ hex. cr
." TIM1_CCER: " TIM1_CCER @ hex. cr
." TIM1_CNT: " TIM1_CNT @ hex. cr
." TIM1_PSC: " TIM1_PSC @ hex. cr
." TIM1_ARR: " TIM1_ARR @ hex. cr
." TIM1_CCR1: " TIM1_CCR1 @ hex. cr
." TIM1_CCR2: " TIM1_CCR2 @ hex. cr
." TIM1_CCR3: " TIM1_CCR3 @ hex. cr
." TIM1_CCR4: " TIM1_CCR4 @ hex. cr
." TIM1_DCR: " TIM1_DCR @ hex. cr
." TIM1_DMAR: " TIM1_DMAR @ hex. cr
." TIM1_RCR: " TIM1_RCR @ hex. cr
." TIM1_BDTR: " TIM1_BDTR @ hex. cr
." TIM1_CCMR3_Output: " TIM1_CCMR3_Output @ hex. cr
." TIM1_CCR5: " TIM1_CCR5 @ hex. cr
." TIM1_CRR6: " TIM1_CRR6 @ hex. cr
;

: TIM8. cr
;

: TIM2. cr
." TIM2_CR1: " TIM2_CR1 @ hex. cr
." TIM2_CR2: " TIM2_CR2 @ hex. cr
." TIM2_SMCR: " TIM2_SMCR @ hex. cr
." TIM2_DIER: " TIM2_DIER @ hex. cr
." TIM2_SR: " TIM2_SR @ hex. cr
." TIM2_EGR: " TIM2_EGR @ hex. cr
." TIM2_CCMR1_Output: " TIM2_CCMR1_Output @ hex. cr
." TIM2_CCMR1_Input: " TIM2_CCMR1_Input @ hex. cr
." TIM2_CCMR2_Output: " TIM2_CCMR2_Output @ hex. cr
." TIM2_CCMR2_Input: " TIM2_CCMR2_Input @ hex. cr
." TIM2_CCER: " TIM2_CCER @ hex. cr
." TIM2_CNT: " TIM2_CNT @ hex. cr
." TIM2_PSC: " TIM2_PSC @ hex. cr
." TIM2_ARR: " TIM2_ARR @ hex. cr
." TIM2_CCR1: " TIM2_CCR1 @ hex. cr
." TIM2_CCR2: " TIM2_CCR2 @ hex. cr
." TIM2_CCR3: " TIM2_CCR3 @ hex. cr
." TIM2_CCR4: " TIM2_CCR4 @ hex. cr
." TIM2_DCR: " TIM2_DCR @ hex. cr
." TIM2_DMAR: " TIM2_DMAR @ hex. cr
." TIM2_OR1: " TIM2_OR1 @ hex. cr
." TIM2_OR2: " TIM2_OR2 @ hex. cr
;

: TIM3. cr
." TIM3_CR1: " TIM3_CR1 @ hex. cr
." TIM3_CR2: " TIM3_CR2 @ hex. cr
." TIM3_SMCR: " TIM3_SMCR @ hex. cr
." TIM3_DIER: " TIM3_DIER @ hex. cr
." TIM3_SR: " TIM3_SR @ hex. cr
." TIM3_EGR: " TIM3_EGR @ hex. cr
." TIM3_CCMR1_Output: " TIM3_CCMR1_Output @ hex. cr
." TIM3_CCMR1_Input: " TIM3_CCMR1_Input @ hex. cr
." TIM3_CCMR2_Output: " TIM3_CCMR2_Output @ hex. cr
." TIM3_CCMR2_Input: " TIM3_CCMR2_Input @ hex. cr
." TIM3_CCER: " TIM3_CCER @ hex. cr
." TIM3_CNT: " TIM3_CNT @ hex. cr
." TIM3_PSC: " TIM3_PSC @ hex. cr
." TIM3_ARR: " TIM3_ARR @ hex. cr
." TIM3_CCR1: " TIM3_CCR1 @ hex. cr
." TIM3_CCR2: " TIM3_CCR2 @ hex. cr
." TIM3_CCR3: " TIM3_CCR3 @ hex. cr
." TIM3_CCR4: " TIM3_CCR4 @ hex. cr
." TIM3_DCR: " TIM3_DCR @ hex. cr
." TIM3_DMAR: " TIM3_DMAR @ hex. cr
." TIM3_OR1: " TIM3_OR1 @ hex. cr
." TIM3_OR2: " TIM3_OR2 @ hex. cr
;

: TIM4. cr
." TIM4_CR1: " TIM4_CR1 @ hex. cr
." TIM4_CR2: " TIM4_CR2 @ hex. cr
." TIM4_SMCR: " TIM4_SMCR @ hex. cr
." TIM4_DIER: " TIM4_DIER @ hex. cr
." TIM4_SR: " TIM4_SR @ hex. cr
." TIM4_EGR: " TIM4_EGR @ hex. cr
." TIM4_CCMR1_Output: " TIM4_CCMR1_Output @ hex. cr
." TIM4_CCMR1_Input: " TIM4_CCMR1_Input @ hex. cr
." TIM4_CCMR2_Output: " TIM4_CCMR2_Output @ hex. cr
." TIM4_CCMR2_Input: " TIM4_CCMR2_Input @ hex. cr
." TIM4_CCER: " TIM4_CCER @ hex. cr
." TIM4_CNT: " TIM4_CNT @ hex. cr
." TIM4_PSC: " TIM4_PSC @ hex. cr
." TIM4_ARR: " TIM4_ARR @ hex. cr
." TIM4_CCR1: " TIM4_CCR1 @ hex. cr
." TIM4_CCR2: " TIM4_CCR2 @ hex. cr
." TIM4_CCR3: " TIM4_CCR3 @ hex. cr
." TIM4_CCR4: " TIM4_CCR4 @ hex. cr
." TIM4_DCR: " TIM4_DCR @ hex. cr
." TIM4_DMAR: " TIM4_DMAR @ hex. cr
;

: TIM5. cr
;

: TIM9. cr
." TIM9_CR1: " TIM9_CR1 @ hex. cr
." TIM9_SMCR: " TIM9_SMCR @ hex. cr
." TIM9_DIER: " TIM9_DIER @ hex. cr
." TIM9_SR: " TIM9_SR @ hex. cr
." TIM9_EGR: " TIM9_EGR @ hex. cr
." TIM9_CCMR1_Output: " TIM9_CCMR1_Output @ hex. cr
." TIM9_CCMR1_Input: " TIM9_CCMR1_Input @ hex. cr
." TIM9_CCER: " TIM9_CCER @ hex. cr
." TIM9_CNT: " TIM9_CNT @ hex. cr
." TIM9_PSC: " TIM9_PSC @ hex. cr
." TIM9_ARR: " TIM9_ARR @ hex. cr
." TIM9_CCR1: " TIM9_CCR1 @ hex. cr
." TIM9_CCR2: " TIM9_CCR2 @ hex. cr
;

: TIM12. cr
;

: TIM10. cr
." TIM10_CR1: " TIM10_CR1 @ hex. cr
." TIM10_DIER: " TIM10_DIER @ hex. cr
." TIM10_SR: " TIM10_SR @ hex. cr
." TIM10_EGR: " TIM10_EGR @ hex. cr
." TIM10_CCMR1_Output: " TIM10_CCMR1_Output @ hex. cr
." TIM10_CCMR1_Input: " TIM10_CCMR1_Input @ hex. cr
." TIM10_CCER: " TIM10_CCER @ hex. cr
." TIM10_CNT: " TIM10_CNT @ hex. cr
." TIM10_PSC: " TIM10_PSC @ hex. cr
." TIM10_ARR: " TIM10_ARR @ hex. cr
." TIM10_CCR1: " TIM10_CCR1 @ hex. cr
." TIM10_SMCR: " TIM10_SMCR @ hex. cr
." TIM10_OR: " TIM10_OR @ hex. cr
;

: TIM11. cr
;

: TIM13. cr
;

: TIM14. cr
;

: TIM6. cr
." TIM6_CR1: " TIM6_CR1 @ hex. cr
." TIM6_CR2: " TIM6_CR2 @ hex. cr
." TIM6_DIER: " TIM6_DIER @ hex. cr
." TIM6_SR: " TIM6_SR @ hex. cr
." TIM6_EGR: " TIM6_EGR @ hex. cr
." TIM6_CNT: " TIM6_CNT @ hex. cr
." TIM6_PSC: " TIM6_PSC @ hex. cr
." TIM6_ARR: " TIM6_ARR @ hex. cr
;

: TIM7. cr
;

: Ethernet_MAC. cr
." Ethernet_MAC_MACCR: " Ethernet_MAC_MACCR @ hex. cr
." Ethernet_MAC_MACFFR: " Ethernet_MAC_MACFFR @ hex. cr
." Ethernet_MAC_MACHTHR: " Ethernet_MAC_MACHTHR @ hex. cr
." Ethernet_MAC_MACHTLR: " Ethernet_MAC_MACHTLR @ hex. cr
." Ethernet_MAC_MACMIIAR: " Ethernet_MAC_MACMIIAR @ hex. cr
." Ethernet_MAC_MACMIIDR: " Ethernet_MAC_MACMIIDR @ hex. cr
." Ethernet_MAC_MACFCR: " Ethernet_MAC_MACFCR @ hex. cr
." Ethernet_MAC_MACVLANTR: " Ethernet_MAC_MACVLANTR @ hex. cr
." Ethernet_MAC_MACPMTCSR: " Ethernet_MAC_MACPMTCSR @ hex. cr
." Ethernet_MAC_MACDBGR: " Ethernet_MAC_MACDBGR @ hex. cr
." Ethernet_MAC_MACSR: " Ethernet_MAC_MACSR @ hex. cr
." Ethernet_MAC_MACIMR: " Ethernet_MAC_MACIMR @ hex. cr
." Ethernet_MAC_MACA0HR: " Ethernet_MAC_MACA0HR @ hex. cr
." Ethernet_MAC_MACA0LR: " Ethernet_MAC_MACA0LR @ hex. cr
." Ethernet_MAC_MACA1HR: " Ethernet_MAC_MACA1HR @ hex. cr
." Ethernet_MAC_MACA1LR: " Ethernet_MAC_MACA1LR @ hex. cr
." Ethernet_MAC_MACA2HR: " Ethernet_MAC_MACA2HR @ hex. cr
." Ethernet_MAC_MACA2LR: " Ethernet_MAC_MACA2LR @ hex. cr
." Ethernet_MAC_MACA3HR: " Ethernet_MAC_MACA3HR @ hex. cr
." Ethernet_MAC_MACA3LR: " Ethernet_MAC_MACA3LR @ hex. cr
." Ethernet_MAC_MACRWUFFER: " Ethernet_MAC_MACRWUFFER @ hex. cr
;

: Ethernet_MMC. cr
." Ethernet_MMC_MMCCR: " Ethernet_MMC_MMCCR @ hex. cr
." Ethernet_MMC_MMCRIR: " Ethernet_MMC_MMCRIR @ hex. cr
." Ethernet_MMC_MMCTIR: " Ethernet_MMC_MMCTIR @ hex. cr
." Ethernet_MMC_MMCRIMR: " Ethernet_MMC_MMCRIMR @ hex. cr
." Ethernet_MMC_MMCTIMR: " Ethernet_MMC_MMCTIMR @ hex. cr
." Ethernet_MMC_MMCTGFSCCR: " Ethernet_MMC_MMCTGFSCCR @ hex. cr
." Ethernet_MMC_MMCTGFMSCCR: " Ethernet_MMC_MMCTGFMSCCR @ hex. cr
." Ethernet_MMC_MMCTGFCR: " Ethernet_MMC_MMCTGFCR @ hex. cr
." Ethernet_MMC_MMCRFCECR: " Ethernet_MMC_MMCRFCECR @ hex. cr
." Ethernet_MMC_MMCRFAECR: " Ethernet_MMC_MMCRFAECR @ hex. cr
." Ethernet_MMC_MMCRGUFCR: " Ethernet_MMC_MMCRGUFCR @ hex. cr
;

: Ethernet_PTP. cr
." Ethernet_PTP_PTPTSCR: " Ethernet_PTP_PTPTSCR @ hex. cr
." Ethernet_PTP_PTPSSIR: " Ethernet_PTP_PTPSSIR @ hex. cr
." Ethernet_PTP_PTPTSHR: " Ethernet_PTP_PTPTSHR @ hex. cr
." Ethernet_PTP_PTPTSLR: " Ethernet_PTP_PTPTSLR @ hex. cr
." Ethernet_PTP_PTPTSHUR: " Ethernet_PTP_PTPTSHUR @ hex. cr
." Ethernet_PTP_PTPTSLUR: " Ethernet_PTP_PTPTSLUR @ hex. cr
." Ethernet_PTP_PTPTSAR: " Ethernet_PTP_PTPTSAR @ hex. cr
." Ethernet_PTP_PTPTTHR: " Ethernet_PTP_PTPTTHR @ hex. cr
." Ethernet_PTP_PTPTTLR: " Ethernet_PTP_PTPTTLR @ hex. cr
." Ethernet_PTP_PTPTSSR: " Ethernet_PTP_PTPTSSR @ hex. cr
." Ethernet_PTP_PTPPPSCR: " Ethernet_PTP_PTPPPSCR @ hex. cr
;

: Ethernet_DMA. cr
." Ethernet_DMA_DMABMR: " Ethernet_DMA_DMABMR @ hex. cr
." Ethernet_DMA_DMATPDR: " Ethernet_DMA_DMATPDR @ hex. cr
." Ethernet_DMA_DMARPDR: " Ethernet_DMA_DMARPDR @ hex. cr
." Ethernet_DMA_DMARDLAR: " Ethernet_DMA_DMARDLAR @ hex. cr
." Ethernet_DMA_DMATDLAR: " Ethernet_DMA_DMATDLAR @ hex. cr
." Ethernet_DMA_DMASR: " Ethernet_DMA_DMASR @ hex. cr
." Ethernet_DMA_DMAOMR: " Ethernet_DMA_DMAOMR @ hex. cr
." Ethernet_DMA_DMAIER: " Ethernet_DMA_DMAIER @ hex. cr
." Ethernet_DMA_DMAMFBOCR: " Ethernet_DMA_DMAMFBOCR @ hex. cr
." Ethernet_DMA_DMARSWTR: " Ethernet_DMA_DMARSWTR @ hex. cr
." Ethernet_DMA_DMACHTDR: " Ethernet_DMA_DMACHTDR @ hex. cr
." Ethernet_DMA_DMACHRDR: " Ethernet_DMA_DMACHRDR @ hex. cr
." Ethernet_DMA_DMACHTBAR: " Ethernet_DMA_DMACHTBAR @ hex. cr
." Ethernet_DMA_DMACHRBAR: " Ethernet_DMA_DMACHRBAR @ hex. cr
;

: CRC. cr
." CRC_DR: " CRC_DR @ hex. cr
." CRC_IDR: " CRC_IDR @ hex. cr
." CRC_CR: " CRC_CR @ hex. cr
." CRC_INIT: " CRC_INIT @ hex. cr
." CRC_POL: " CRC_POL @ hex. cr
;

: CAN1. cr
." CAN1_MCR: " CAN1_MCR @ hex. cr
." CAN1_MSR: " CAN1_MSR @ hex. cr
." CAN1_TSR: " CAN1_TSR @ hex. cr
." CAN1_RF0R: " CAN1_RF0R @ hex. cr
." CAN1_RF1R: " CAN1_RF1R @ hex. cr
." CAN1_IER: " CAN1_IER @ hex. cr
." CAN1_ESR: " CAN1_ESR @ hex. cr
." CAN1_BTR: " CAN1_BTR @ hex. cr
." CAN1_TI0R: " CAN1_TI0R @ hex. cr
." CAN1_TDT0R: " CAN1_TDT0R @ hex. cr
." CAN1_TDL0R: " CAN1_TDL0R @ hex. cr
." CAN1_TDH0R: " CAN1_TDH0R @ hex. cr
." CAN1_TI1R: " CAN1_TI1R @ hex. cr
." CAN1_TDT1R: " CAN1_TDT1R @ hex. cr
." CAN1_TDL1R: " CAN1_TDL1R @ hex. cr
." CAN1_TDH1R: " CAN1_TDH1R @ hex. cr
." CAN1_TI2R: " CAN1_TI2R @ hex. cr
." CAN1_TDT2R: " CAN1_TDT2R @ hex. cr
." CAN1_TDL2R: " CAN1_TDL2R @ hex. cr
." CAN1_TDH2R: " CAN1_TDH2R @ hex. cr
." CAN1_RI0R: " CAN1_RI0R @ hex. cr
." CAN1_RDT0R: " CAN1_RDT0R @ hex. cr
." CAN1_RDL0R: " CAN1_RDL0R @ hex. cr
." CAN1_RDH0R: " CAN1_RDH0R @ hex. cr
." CAN1_RI1R: " CAN1_RI1R @ hex. cr
." CAN1_RDT1R: " CAN1_RDT1R @ hex. cr
." CAN1_RDL1R: " CAN1_RDL1R @ hex. cr
." CAN1_RDH1R: " CAN1_RDH1R @ hex. cr
." CAN1_FMR: " CAN1_FMR @ hex. cr
." CAN1_FM1R: " CAN1_FM1R @ hex. cr
." CAN1_FS1R: " CAN1_FS1R @ hex. cr
." CAN1_FFA1R: " CAN1_FFA1R @ hex. cr
." CAN1_FA1R: " CAN1_FA1R @ hex. cr
." CAN1_F0R1: " CAN1_F0R1 @ hex. cr
." CAN1_F0R2: " CAN1_F0R2 @ hex. cr
." CAN1_F1R1: " CAN1_F1R1 @ hex. cr
." CAN1_F1R2: " CAN1_F1R2 @ hex. cr
." CAN1_F2R1: " CAN1_F2R1 @ hex. cr
." CAN1_F2R2: " CAN1_F2R2 @ hex. cr
." CAN1_F3R1: " CAN1_F3R1 @ hex. cr
." CAN1_F3R2: " CAN1_F3R2 @ hex. cr
." CAN1_F4R1: " CAN1_F4R1 @ hex. cr
." CAN1_F4R2: " CAN1_F4R2 @ hex. cr
." CAN1_F5R1: " CAN1_F5R1 @ hex. cr
." CAN1_F5R2: " CAN1_F5R2 @ hex. cr
." CAN1_F6R1: " CAN1_F6R1 @ hex. cr
." CAN1_F6R2: " CAN1_F6R2 @ hex. cr
." CAN1_F7R1: " CAN1_F7R1 @ hex. cr
." CAN1_F7R2: " CAN1_F7R2 @ hex. cr
." CAN1_F8R1: " CAN1_F8R1 @ hex. cr
." CAN1_F8R2: " CAN1_F8R2 @ hex. cr
." CAN1_F9R1: " CAN1_F9R1 @ hex. cr
." CAN1_F9R2: " CAN1_F9R2 @ hex. cr
." CAN1_F10R1: " CAN1_F10R1 @ hex. cr
." CAN1_F10R2: " CAN1_F10R2 @ hex. cr
." CAN1_F11R1: " CAN1_F11R1 @ hex. cr
." CAN1_F11R2: " CAN1_F11R2 @ hex. cr
." CAN1_F12R1: " CAN1_F12R1 @ hex. cr
." CAN1_F12R2: " CAN1_F12R2 @ hex. cr
." CAN1_F13R1: " CAN1_F13R1 @ hex. cr
." CAN1_F13R2: " CAN1_F13R2 @ hex. cr
." CAN1_F14R1: " CAN1_F14R1 @ hex. cr
." CAN1_F14R2: " CAN1_F14R2 @ hex. cr
." CAN1_F15R1: " CAN1_F15R1 @ hex. cr
." CAN1_F15R2: " CAN1_F15R2 @ hex. cr
." CAN1_F16R1: " CAN1_F16R1 @ hex. cr
." CAN1_F16R2: " CAN1_F16R2 @ hex. cr
." CAN1_F17R1: " CAN1_F17R1 @ hex. cr
." CAN1_F17R2: " CAN1_F17R2 @ hex. cr
." CAN1_F18R1: " CAN1_F18R1 @ hex. cr
." CAN1_F18R2: " CAN1_F18R2 @ hex. cr
." CAN1_F19R1: " CAN1_F19R1 @ hex. cr
." CAN1_F19R2: " CAN1_F19R2 @ hex. cr
." CAN1_F20R1: " CAN1_F20R1 @ hex. cr
." CAN1_F20R2: " CAN1_F20R2 @ hex. cr
." CAN1_F21R1: " CAN1_F21R1 @ hex. cr
." CAN1_F21R2: " CAN1_F21R2 @ hex. cr
." CAN1_F22R1: " CAN1_F22R1 @ hex. cr
." CAN1_F22R2: " CAN1_F22R2 @ hex. cr
." CAN1_F23R1: " CAN1_F23R1 @ hex. cr
." CAN1_F23R2: " CAN1_F23R2 @ hex. cr
." CAN1_F24R1: " CAN1_F24R1 @ hex. cr
." CAN1_F24R2: " CAN1_F24R2 @ hex. cr
." CAN1_F25R1: " CAN1_F25R1 @ hex. cr
." CAN1_F25R2: " CAN1_F25R2 @ hex. cr
." CAN1_F26R1: " CAN1_F26R1 @ hex. cr
." CAN1_F26R2: " CAN1_F26R2 @ hex. cr
." CAN1_F27R1: " CAN1_F27R1 @ hex. cr
." CAN1_F27R2: " CAN1_F27R2 @ hex. cr
;

: CAN2. cr
;

: NVIC. cr
." NVIC_ICTR: " NVIC_ICTR @ hex. cr
." NVIC_STIR: " NVIC_STIR @ hex. cr
." NVIC_ISER0: " NVIC_ISER0 @ hex. cr
." NVIC_ISER1: " NVIC_ISER1 @ hex. cr
." NVIC_ISER2: " NVIC_ISER2 @ hex. cr
." NVIC_ICER0: " NVIC_ICER0 @ hex. cr
." NVIC_ICER1: " NVIC_ICER1 @ hex. cr
." NVIC_ICER2: " NVIC_ICER2 @ hex. cr
." NVIC_ISPR0: " NVIC_ISPR0 @ hex. cr
." NVIC_ISPR1: " NVIC_ISPR1 @ hex. cr
." NVIC_ISPR2: " NVIC_ISPR2 @ hex. cr
." NVIC_ICPR0: " NVIC_ICPR0 @ hex. cr
." NVIC_ICPR1: " NVIC_ICPR1 @ hex. cr
." NVIC_ICPR2: " NVIC_ICPR2 @ hex. cr
." NVIC_IABR0: " NVIC_IABR0 @ hex. cr
." NVIC_IABR1: " NVIC_IABR1 @ hex. cr
." NVIC_IABR2: " NVIC_IABR2 @ hex. cr
." NVIC_IPR0: " NVIC_IPR0 @ hex. cr
." NVIC_IPR1: " NVIC_IPR1 @ hex. cr
." NVIC_IPR2: " NVIC_IPR2 @ hex. cr
." NVIC_IPR3: " NVIC_IPR3 @ hex. cr
." NVIC_IPR4: " NVIC_IPR4 @ hex. cr
." NVIC_IPR5: " NVIC_IPR5 @ hex. cr
." NVIC_IPR6: " NVIC_IPR6 @ hex. cr
." NVIC_IPR7: " NVIC_IPR7 @ hex. cr
." NVIC_IPR8: " NVIC_IPR8 @ hex. cr
." NVIC_IPR9: " NVIC_IPR9 @ hex. cr
." NVIC_IPR10: " NVIC_IPR10 @ hex. cr
." NVIC_IPR11: " NVIC_IPR11 @ hex. cr
." NVIC_IPR12: " NVIC_IPR12 @ hex. cr
." NVIC_IPR13: " NVIC_IPR13 @ hex. cr
." NVIC_IPR14: " NVIC_IPR14 @ hex. cr
." NVIC_IPR15: " NVIC_IPR15 @ hex. cr
." NVIC_IPR16: " NVIC_IPR16 @ hex. cr
." NVIC_IPR17: " NVIC_IPR17 @ hex. cr
." NVIC_IPR18: " NVIC_IPR18 @ hex. cr
." NVIC_IPR19: " NVIC_IPR19 @ hex. cr
." NVIC_IPR20: " NVIC_IPR20 @ hex. cr
;

: FLASH. cr
." FLASH_ACR: " FLASH_ACR @ hex. cr
." FLASH_KEYR: " FLASH_KEYR @ hex. cr
." FLASH_OPTKEYR: " FLASH_OPTKEYR @ hex. cr
." FLASH_SR: " FLASH_SR @ hex. cr
." FLASH_CR: " FLASH_CR @ hex. cr
." FLASH_OPTCR: " FLASH_OPTCR @ hex. cr
." FLASH_OPTCR1: " FLASH_OPTCR1 @ hex. cr
;

: EXTI. cr
." EXTI_IMR: " EXTI_IMR @ hex. cr
." EXTI_EMR: " EXTI_EMR @ hex. cr
." EXTI_RTSR: " EXTI_RTSR @ hex. cr
." EXTI_FTSR: " EXTI_FTSR @ hex. cr
." EXTI_SWIER: " EXTI_SWIER @ hex. cr
." EXTI_PR: " EXTI_PR @ hex. cr
;

: LTDC. cr
." LTDC_SSCR: " LTDC_SSCR @ hex. cr
." LTDC_BPCR: " LTDC_BPCR @ hex. cr
." LTDC_AWCR: " LTDC_AWCR @ hex. cr
." LTDC_TWCR: " LTDC_TWCR @ hex. cr
." LTDC_GCR: " LTDC_GCR @ hex. cr
." LTDC_SRCR: " LTDC_SRCR @ hex. cr
." LTDC_BCCR: " LTDC_BCCR @ hex. cr
." LTDC_IER: " LTDC_IER @ hex. cr
." LTDC_ISR: " LTDC_ISR @ hex. cr
." LTDC_ICR: " LTDC_ICR @ hex. cr
." LTDC_LIPCR: " LTDC_LIPCR @ hex. cr
." LTDC_CPSR: " LTDC_CPSR @ hex. cr
." LTDC_CDSR: " LTDC_CDSR @ hex. cr
." LTDC_L1CR: " LTDC_L1CR @ hex. cr
." LTDC_L1WHPCR: " LTDC_L1WHPCR @ hex. cr
." LTDC_L1WVPCR: " LTDC_L1WVPCR @ hex. cr
." LTDC_L1CKCR: " LTDC_L1CKCR @ hex. cr
." LTDC_L1PFCR: " LTDC_L1PFCR @ hex. cr
." LTDC_L1CACR: " LTDC_L1CACR @ hex. cr
." LTDC_L1DCCR: " LTDC_L1DCCR @ hex. cr
." LTDC_L1BFCR: " LTDC_L1BFCR @ hex. cr
." LTDC_L1CFBAR: " LTDC_L1CFBAR @ hex. cr
." LTDC_L1CFBLR: " LTDC_L1CFBLR @ hex. cr
." LTDC_L1CFBLNR: " LTDC_L1CFBLNR @ hex. cr
." LTDC_L1CLUTWR: " LTDC_L1CLUTWR @ hex. cr
." LTDC_L2CR: " LTDC_L2CR @ hex. cr
." LTDC_L2WHPCR: " LTDC_L2WHPCR @ hex. cr
." LTDC_L2WVPCR: " LTDC_L2WVPCR @ hex. cr
." LTDC_L2CKCR: " LTDC_L2CKCR @ hex. cr
." LTDC_L2PFCR: " LTDC_L2PFCR @ hex. cr
." LTDC_L2CACR: " LTDC_L2CACR @ hex. cr
." LTDC_L2DCCR: " LTDC_L2DCCR @ hex. cr
." LTDC_L2BFCR: " LTDC_L2BFCR @ hex. cr
." LTDC_L2CFBAR: " LTDC_L2CFBAR @ hex. cr
." LTDC_L2CFBLR: " LTDC_L2CFBLR @ hex. cr
." LTDC_L2CFBLNR: " LTDC_L2CFBLNR @ hex. cr
." LTDC_L2CLUTWR: " LTDC_L2CLUTWR @ hex. cr
;

: SAI1. cr
." SAI1_BCR1: " SAI1_BCR1 @ hex. cr
." SAI1_BCR2: " SAI1_BCR2 @ hex. cr
." SAI1_BFRCR: " SAI1_BFRCR @ hex. cr
." SAI1_BSLOTR: " SAI1_BSLOTR @ hex. cr
." SAI1_BIM: " SAI1_BIM @ hex. cr
." SAI1_BSR: " SAI1_BSR @ hex. cr
." SAI1_BCLRFR: " SAI1_BCLRFR @ hex. cr
." SAI1_BDR: " SAI1_BDR @ hex. cr
." SAI1_ACR1: " SAI1_ACR1 @ hex. cr
." SAI1_ACR2: " SAI1_ACR2 @ hex. cr
." SAI1_AFRCR: " SAI1_AFRCR @ hex. cr
." SAI1_ASLOTR: " SAI1_ASLOTR @ hex. cr
." SAI1_AIM: " SAI1_AIM @ hex. cr
." SAI1_ASR: " SAI1_ASR @ hex. cr
." SAI1_ACLRFR: " SAI1_ACLRFR @ hex. cr
." SAI1_ADR: " SAI1_ADR @ hex. cr
." SAI1_GCR: " SAI1_GCR @ hex. cr
;

: SAI2. cr
;

: DMA2D. cr
." DMA2D_CR: " DMA2D_CR @ hex. cr
." DMA2D_ISR: " DMA2D_ISR @ hex. cr
." DMA2D_IFCR: " DMA2D_IFCR @ hex. cr
." DMA2D_FGMAR: " DMA2D_FGMAR @ hex. cr
." DMA2D_FGOR: " DMA2D_FGOR @ hex. cr
." DMA2D_BGMAR: " DMA2D_BGMAR @ hex. cr
." DMA2D_BGOR: " DMA2D_BGOR @ hex. cr
." DMA2D_FGPFCCR: " DMA2D_FGPFCCR @ hex. cr
." DMA2D_FGCOLR: " DMA2D_FGCOLR @ hex. cr
." DMA2D_BGPFCCR: " DMA2D_BGPFCCR @ hex. cr
." DMA2D_BGCOLR: " DMA2D_BGCOLR @ hex. cr
." DMA2D_FGCMAR: " DMA2D_FGCMAR @ hex. cr
." DMA2D_BGCMAR: " DMA2D_BGCMAR @ hex. cr
." DMA2D_OPFCCR: " DMA2D_OPFCCR @ hex. cr
." DMA2D_OCOLR: " DMA2D_OCOLR @ hex. cr
." DMA2D_OMAR: " DMA2D_OMAR @ hex. cr
." DMA2D_OOR: " DMA2D_OOR @ hex. cr
." DMA2D_NLR: " DMA2D_NLR @ hex. cr
." DMA2D_LWR: " DMA2D_LWR @ hex. cr
." DMA2D_AMTCR: " DMA2D_AMTCR @ hex. cr
." DMA2D_FGCLUT: " DMA2D_FGCLUT @ hex. cr
." DMA2D_BGCLUT: " DMA2D_BGCLUT @ hex. cr
;

: QUADSPI. cr
." QUADSPI_CR: " QUADSPI_CR @ hex. cr
." QUADSPI_DCR: " QUADSPI_DCR @ hex. cr
." QUADSPI_SR: " QUADSPI_SR @ hex. cr
." QUADSPI_FCR: " QUADSPI_FCR @ hex. cr
." QUADSPI_DLR: " QUADSPI_DLR @ hex. cr
." QUADSPI_CCR: " QUADSPI_CCR @ hex. cr
." QUADSPI_AR: " QUADSPI_AR @ hex. cr
." QUADSPI_ABR: " QUADSPI_ABR @ hex. cr
." QUADSPI_DR: " QUADSPI_DR @ hex. cr
." QUADSPI_PSMKR: " QUADSPI_PSMKR @ hex. cr
." QUADSPI_PSMAR: " QUADSPI_PSMAR @ hex. cr
." QUADSPI_PIR: " QUADSPI_PIR @ hex. cr
." QUADSPI_LPTR: " QUADSPI_LPTR @ hex. cr
;

: CEC. cr
." CEC_CR: " CEC_CR @ hex. cr
." CEC_CFGR: " CEC_CFGR @ hex. cr
." CEC_TXDR: " CEC_TXDR @ hex. cr
." CEC_RXDR: " CEC_RXDR @ hex. cr
." CEC_ISR: " CEC_ISR @ hex. cr
." CEC_IER: " CEC_IER @ hex. cr
;

: SPDIF_RX. cr
." SPDIF_RX_CR: " SPDIF_RX_CR @ hex. cr
." SPDIF_RX_IMR: " SPDIF_RX_IMR @ hex. cr
." SPDIF_RX_SR: " SPDIF_RX_SR @ hex. cr
." SPDIF_RX_IFCR: " SPDIF_RX_IFCR @ hex. cr
." SPDIF_RX_DR: " SPDIF_RX_DR @ hex. cr
." SPDIF_RX_CSR: " SPDIF_RX_CSR @ hex. cr
." SPDIF_RX_DIR: " SPDIF_RX_DIR @ hex. cr
;

: SDMMC1. cr
." SDMMC1_POWER: " SDMMC1_POWER @ hex. cr
." SDMMC1_CLKCR: " SDMMC1_CLKCR @ hex. cr
." SDMMC1_ARG: " SDMMC1_ARG @ hex. cr
." SDMMC1_CMD: " SDMMC1_CMD @ hex. cr
." SDMMC1_RESPCMD: " SDMMC1_RESPCMD @ hex. cr
." SDMMC1_RESP1: " SDMMC1_RESP1 @ hex. cr
." SDMMC1_RESP2: " SDMMC1_RESP2 @ hex. cr
." SDMMC1_RESP3: " SDMMC1_RESP3 @ hex. cr
." SDMMC1_RESP4: " SDMMC1_RESP4 @ hex. cr
." SDMMC1_DTIMER: " SDMMC1_DTIMER @ hex. cr
." SDMMC1_DLEN: " SDMMC1_DLEN @ hex. cr
." SDMMC1_DCTRL: " SDMMC1_DCTRL @ hex. cr
." SDMMC1_DCOUNT: " SDMMC1_DCOUNT @ hex. cr
." SDMMC1_STA: " SDMMC1_STA @ hex. cr
." SDMMC1_ICR: " SDMMC1_ICR @ hex. cr
." SDMMC1_MASK: " SDMMC1_MASK @ hex. cr
." SDMMC1_FIFOCNT: " SDMMC1_FIFOCNT @ hex. cr
." SDMMC1_FIFO: " SDMMC1_FIFO @ hex. cr
;

: LPTIM1. cr
." LPTIM1_ISR: " LPTIM1_ISR @ hex. cr
." LPTIM1_ICR: " LPTIM1_ICR @ hex. cr
." LPTIM1_IER: " LPTIM1_IER @ hex. cr
." LPTIM1_CFGR: " LPTIM1_CFGR @ hex. cr
." LPTIM1_CR: " LPTIM1_CR @ hex. cr
." LPTIM1_CMP: " LPTIM1_CMP @ hex. cr
." LPTIM1_ARR: " LPTIM1_ARR @ hex. cr
." LPTIM1_CNT: " LPTIM1_CNT @ hex. cr
;

: I2C1. cr
." I2C1_CR1: " I2C1_CR1 @ hex. cr
." I2C1_CR2: " I2C1_CR2 @ hex. cr
." I2C1_OAR1: " I2C1_OAR1 @ hex. cr
." I2C1_OAR2: " I2C1_OAR2 @ hex. cr
." I2C1_TIMINGR: " I2C1_TIMINGR @ hex. cr
." I2C1_TIMEOUTR: " I2C1_TIMEOUTR @ hex. cr
." I2C1_ISR: " I2C1_ISR @ hex. cr
." I2C1_ICR: " I2C1_ICR @ hex. cr
." I2C1_PECR: " I2C1_PECR @ hex. cr
." I2C1_RXDR: " I2C1_RXDR @ hex. cr
." I2C1_TXDR: " I2C1_TXDR @ hex. cr
;

: I2C2. cr
;

: I2C3. cr
;

: I2C4. cr
;

: RTC. cr
." RTC_TR: " RTC_TR @ hex. cr
." RTC_DR: " RTC_DR @ hex. cr
." RTC_CR: " RTC_CR @ hex. cr
." RTC_ISR: " RTC_ISR @ hex. cr
." RTC_PRER: " RTC_PRER @ hex. cr
." RTC_WUTR: " RTC_WUTR @ hex. cr
." RTC_ALRMAR: " RTC_ALRMAR @ hex. cr
." RTC_ALRMBR: " RTC_ALRMBR @ hex. cr
." RTC_WPR: " RTC_WPR @ hex. cr
." RTC_SSR: " RTC_SSR @ hex. cr
." RTC_SHIFTR: " RTC_SHIFTR @ hex. cr
." RTC_TSTR: " RTC_TSTR @ hex. cr
." RTC_TSDR: " RTC_TSDR @ hex. cr
." RTC_TSSSR: " RTC_TSSSR @ hex. cr
." RTC_CALR: " RTC_CALR @ hex. cr
." RTC_TAMPCR: " RTC_TAMPCR @ hex. cr
." RTC_ALRMASSR: " RTC_ALRMASSR @ hex. cr
." RTC_ALRMBSSR: " RTC_ALRMBSSR @ hex. cr
." RTC_OR: " RTC_OR @ hex. cr
." RTC_BKP0R: " RTC_BKP0R @ hex. cr
." RTC_BKP1R: " RTC_BKP1R @ hex. cr
." RTC_BKP2R: " RTC_BKP2R @ hex. cr
." RTC_BKP3R: " RTC_BKP3R @ hex. cr
." RTC_BKP4R: " RTC_BKP4R @ hex. cr
." RTC_BKP5R: " RTC_BKP5R @ hex. cr
." RTC_BKP6R: " RTC_BKP6R @ hex. cr
." RTC_BKP7R: " RTC_BKP7R @ hex. cr
." RTC_BKP8R: " RTC_BKP8R @ hex. cr
." RTC_BKP9R: " RTC_BKP9R @ hex. cr
." RTC_BKP10R: " RTC_BKP10R @ hex. cr
." RTC_BKP11R: " RTC_BKP11R @ hex. cr
." RTC_BKP12R: " RTC_BKP12R @ hex. cr
." RTC_BKP13R: " RTC_BKP13R @ hex. cr
." RTC_BKP14R: " RTC_BKP14R @ hex. cr
." RTC_BKP15R: " RTC_BKP15R @ hex. cr
." RTC_BKP16R: " RTC_BKP16R @ hex. cr
." RTC_BKP17R: " RTC_BKP17R @ hex. cr
." RTC_BKP18R: " RTC_BKP18R @ hex. cr
." RTC_BKP19R: " RTC_BKP19R @ hex. cr
." RTC_BKP20R: " RTC_BKP20R @ hex. cr
." RTC_BKP21R: " RTC_BKP21R @ hex. cr
." RTC_BKP22R: " RTC_BKP22R @ hex. cr
." RTC_BKP23R: " RTC_BKP23R @ hex. cr
." RTC_BKP24R: " RTC_BKP24R @ hex. cr
." RTC_BKP25R: " RTC_BKP25R @ hex. cr
." RTC_BKP26R: " RTC_BKP26R @ hex. cr
." RTC_BKP27R: " RTC_BKP27R @ hex. cr
." RTC_BKP28R: " RTC_BKP28R @ hex. cr
." RTC_BKP29R: " RTC_BKP29R @ hex. cr
." RTC_BKP30R: " RTC_BKP30R @ hex. cr
." RTC_BKP31R: " RTC_BKP31R @ hex. cr
;

: USART6. cr
." USART6_CR1: " USART6_CR1 @ hex. cr
." USART6_CR2: " USART6_CR2 @ hex. cr
." USART6_CR3: " USART6_CR3 @ hex. cr
." USART6_BRR: " USART6_BRR @ hex. cr
." USART6_GTPR: " USART6_GTPR @ hex. cr
." USART6_RTOR: " USART6_RTOR @ hex. cr
." USART6_RQR: " USART6_RQR @ hex. cr
." USART6_ISR: " USART6_ISR @ hex. cr
." USART6_ICR: " USART6_ICR @ hex. cr
." USART6_RDR: " USART6_RDR @ hex. cr
." USART6_TDR: " USART6_TDR @ hex. cr
;

: USART1. cr
;

: USART3. cr
;

: USART2. cr
;

: UART5. cr
;

: UART4. cr
;

: UART8. cr
;

: UART7. cr
;

: OTG_FS_GLOBAL. cr
." OTG_FS_GLOBAL_OTG_FS_GOTGCTL: " OTG_FS_GLOBAL_OTG_FS_GOTGCTL @ hex. cr
." OTG_FS_GLOBAL_OTG_FS_GOTGINT: " OTG_FS_GLOBAL_OTG_FS_GOTGINT @ hex. cr
." OTG_FS_GLOBAL_OTG_FS_GAHBCFG: " OTG_FS_GLOBAL_OTG_FS_GAHBCFG @ hex. cr
." OTG_FS_GLOBAL_OTG_FS_GUSBCFG: " OTG_FS_GLOBAL_OTG_FS_GUSBCFG @ hex. cr
." OTG_FS_GLOBAL_OTG_FS_GRSTCTL: " OTG_FS_GLOBAL_OTG_FS_GRSTCTL @ hex. cr
." OTG_FS_GLOBAL_OTG_FS_GINTSTS: " OTG_FS_GLOBAL_OTG_FS_GINTSTS @ hex. cr
." OTG_FS_GLOBAL_OTG_FS_GINTMSK: " OTG_FS_GLOBAL_OTG_FS_GINTMSK @ hex. cr
." OTG_FS_GLOBAL_OTG_FS_GRXSTSR_Device: " OTG_FS_GLOBAL_OTG_FS_GRXSTSR_Device @ hex. cr
." OTG_FS_GLOBAL_OTG_FS_GRXSTSR_Host: " OTG_FS_GLOBAL_OTG_FS_GRXSTSR_Host @ hex. cr
." OTG_FS_GLOBAL_OTG_FS_GRXFSIZ: " OTG_FS_GLOBAL_OTG_FS_GRXFSIZ @ hex. cr
." OTG_FS_GLOBAL_OTG_FS_DIEPTXF0_Device: " OTG_FS_GLOBAL_OTG_FS_DIEPTXF0_Device @ hex. cr
." OTG_FS_GLOBAL_OTG_FS_HNPTXFSIZ_Host: " OTG_FS_GLOBAL_OTG_FS_HNPTXFSIZ_Host @ hex. cr
." OTG_FS_GLOBAL_OTG_FS_HNPTXSTS: " OTG_FS_GLOBAL_OTG_FS_HNPTXSTS @ hex. cr
." OTG_FS_GLOBAL_OTG_FS_GCCFG: " OTG_FS_GLOBAL_OTG_FS_GCCFG @ hex. cr
." OTG_FS_GLOBAL_OTG_FS_CID: " OTG_FS_GLOBAL_OTG_FS_CID @ hex. cr
." OTG_FS_GLOBAL_OTG_FS_HPTXFSIZ: " OTG_FS_GLOBAL_OTG_FS_HPTXFSIZ @ hex. cr
." OTG_FS_GLOBAL_OTG_FS_DIEPTXF1: " OTG_FS_GLOBAL_OTG_FS_DIEPTXF1 @ hex. cr
." OTG_FS_GLOBAL_OTG_FS_DIEPTXF2: " OTG_FS_GLOBAL_OTG_FS_DIEPTXF2 @ hex. cr
." OTG_FS_GLOBAL_OTG_FS_DIEPTXF3: " OTG_FS_GLOBAL_OTG_FS_DIEPTXF3 @ hex. cr
." OTG_FS_GLOBAL_OTG_FS_GRXSTSP_Device: " OTG_FS_GLOBAL_OTG_FS_GRXSTSP_Device @ hex. cr
." OTG_FS_GLOBAL_OTG_FS_GRXSTSP_Host: " OTG_FS_GLOBAL_OTG_FS_GRXSTSP_Host @ hex. cr
." OTG_FS_GLOBAL_OTG_FS_GI2CCTL: " OTG_FS_GLOBAL_OTG_FS_GI2CCTL @ hex. cr
." OTG_FS_GLOBAL_OTG_FS_GPWRDN: " OTG_FS_GLOBAL_OTG_FS_GPWRDN @ hex. cr
." OTG_FS_GLOBAL_OTG_FS_GADPCTL: " OTG_FS_GLOBAL_OTG_FS_GADPCTL @ hex. cr
." OTG_FS_GLOBAL_OTG_FS_DIEPTXF4: " OTG_FS_GLOBAL_OTG_FS_DIEPTXF4 @ hex. cr
." OTG_FS_GLOBAL_OTG_FS_DIEPTXF5: " OTG_FS_GLOBAL_OTG_FS_DIEPTXF5 @ hex. cr
." OTG_FS_GLOBAL_OTG_FS_GLPMCFG: " OTG_FS_GLOBAL_OTG_FS_GLPMCFG @ hex. cr
;

: OTG_FS_HOST. cr
." OTG_FS_HOST_OTG_FS_HCFG: " OTG_FS_HOST_OTG_FS_HCFG @ hex. cr
." OTG_FS_HOST_OTG_FS_HFIR: " OTG_FS_HOST_OTG_FS_HFIR @ hex. cr
." OTG_FS_HOST_OTG_FS_HFNUM: " OTG_FS_HOST_OTG_FS_HFNUM @ hex. cr
." OTG_FS_HOST_OTG_FS_HPTXSTS: " OTG_FS_HOST_OTG_FS_HPTXSTS @ hex. cr
." OTG_FS_HOST_OTG_FS_HAINT: " OTG_FS_HOST_OTG_FS_HAINT @ hex. cr
." OTG_FS_HOST_OTG_FS_HAINTMSK: " OTG_FS_HOST_OTG_FS_HAINTMSK @ hex. cr
." OTG_FS_HOST_OTG_FS_HPRT: " OTG_FS_HOST_OTG_FS_HPRT @ hex. cr
." OTG_FS_HOST_OTG_FS_HCCHAR0: " OTG_FS_HOST_OTG_FS_HCCHAR0 @ hex. cr
." OTG_FS_HOST_OTG_FS_HCCHAR1: " OTG_FS_HOST_OTG_FS_HCCHAR1 @ hex. cr
." OTG_FS_HOST_OTG_FS_HCCHAR2: " OTG_FS_HOST_OTG_FS_HCCHAR2 @ hex. cr
." OTG_FS_HOST_OTG_FS_HCCHAR3: " OTG_FS_HOST_OTG_FS_HCCHAR3 @ hex. cr
." OTG_FS_HOST_OTG_FS_HCCHAR4: " OTG_FS_HOST_OTG_FS_HCCHAR4 @ hex. cr
." OTG_FS_HOST_OTG_FS_HCCHAR5: " OTG_FS_HOST_OTG_FS_HCCHAR5 @ hex. cr
." OTG_FS_HOST_OTG_FS_HCCHAR6: " OTG_FS_HOST_OTG_FS_HCCHAR6 @ hex. cr
." OTG_FS_HOST_OTG_FS_HCCHAR7: " OTG_FS_HOST_OTG_FS_HCCHAR7 @ hex. cr
." OTG_FS_HOST_OTG_FS_HCINT0: " OTG_FS_HOST_OTG_FS_HCINT0 @ hex. cr
." OTG_FS_HOST_OTG_FS_HCINT1: " OTG_FS_HOST_OTG_FS_HCINT1 @ hex. cr
." OTG_FS_HOST_OTG_FS_HCINT2: " OTG_FS_HOST_OTG_FS_HCINT2 @ hex. cr
." OTG_FS_HOST_OTG_FS_HCINT3: " OTG_FS_HOST_OTG_FS_HCINT3 @ hex. cr
." OTG_FS_HOST_OTG_FS_HCINT4: " OTG_FS_HOST_OTG_FS_HCINT4 @ hex. cr
." OTG_FS_HOST_OTG_FS_HCINT5: " OTG_FS_HOST_OTG_FS_HCINT5 @ hex. cr
." OTG_FS_HOST_OTG_FS_HCINT6: " OTG_FS_HOST_OTG_FS_HCINT6 @ hex. cr
." OTG_FS_HOST_OTG_FS_HCINT7: " OTG_FS_HOST_OTG_FS_HCINT7 @ hex. cr
." OTG_FS_HOST_OTG_FS_HCINTMSK0: " OTG_FS_HOST_OTG_FS_HCINTMSK0 @ hex. cr
." OTG_FS_HOST_OTG_FS_HCINTMSK1: " OTG_FS_HOST_OTG_FS_HCINTMSK1 @ hex. cr
." OTG_FS_HOST_OTG_FS_HCINTMSK2: " OTG_FS_HOST_OTG_FS_HCINTMSK2 @ hex. cr
." OTG_FS_HOST_OTG_FS_HCINTMSK3: " OTG_FS_HOST_OTG_FS_HCINTMSK3 @ hex. cr
." OTG_FS_HOST_OTG_FS_HCINTMSK4: " OTG_FS_HOST_OTG_FS_HCINTMSK4 @ hex. cr
." OTG_FS_HOST_OTG_FS_HCINTMSK5: " OTG_FS_HOST_OTG_FS_HCINTMSK5 @ hex. cr
." OTG_FS_HOST_OTG_FS_HCINTMSK6: " OTG_FS_HOST_OTG_FS_HCINTMSK6 @ hex. cr
." OTG_FS_HOST_OTG_FS_HCINTMSK7: " OTG_FS_HOST_OTG_FS_HCINTMSK7 @ hex. cr
." OTG_FS_HOST_OTG_FS_HCTSIZ0: " OTG_FS_HOST_OTG_FS_HCTSIZ0 @ hex. cr
." OTG_FS_HOST_OTG_FS_HCTSIZ1: " OTG_FS_HOST_OTG_FS_HCTSIZ1 @ hex. cr
." OTG_FS_HOST_OTG_FS_HCTSIZ2: " OTG_FS_HOST_OTG_FS_HCTSIZ2 @ hex. cr
." OTG_FS_HOST_OTG_FS_HCTSIZ3: " OTG_FS_HOST_OTG_FS_HCTSIZ3 @ hex. cr
." OTG_FS_HOST_OTG_FS_HCTSIZ4: " OTG_FS_HOST_OTG_FS_HCTSIZ4 @ hex. cr
." OTG_FS_HOST_OTG_FS_HCTSIZ5: " OTG_FS_HOST_OTG_FS_HCTSIZ5 @ hex. cr
." OTG_FS_HOST_OTG_FS_HCTSIZ6: " OTG_FS_HOST_OTG_FS_HCTSIZ6 @ hex. cr
." OTG_FS_HOST_OTG_FS_HCTSIZ7: " OTG_FS_HOST_OTG_FS_HCTSIZ7 @ hex. cr
." OTG_FS_HOST_OTG_FS_HCCHAR8: " OTG_FS_HOST_OTG_FS_HCCHAR8 @ hex. cr
." OTG_FS_HOST_OTG_FS_HCINT8: " OTG_FS_HOST_OTG_FS_HCINT8 @ hex. cr
." OTG_FS_HOST_OTG_FS_HCINTMSK8: " OTG_FS_HOST_OTG_FS_HCINTMSK8 @ hex. cr
." OTG_FS_HOST_OTG_FS_HCTSIZ8: " OTG_FS_HOST_OTG_FS_HCTSIZ8 @ hex. cr
." OTG_FS_HOST_OTG_FS_HCCHAR9: " OTG_FS_HOST_OTG_FS_HCCHAR9 @ hex. cr
." OTG_FS_HOST_OTG_FS_HCINT9: " OTG_FS_HOST_OTG_FS_HCINT9 @ hex. cr
." OTG_FS_HOST_OTG_FS_HCINTMSK9: " OTG_FS_HOST_OTG_FS_HCINTMSK9 @ hex. cr
." OTG_FS_HOST_OTG_FS_HCTSIZ9: " OTG_FS_HOST_OTG_FS_HCTSIZ9 @ hex. cr
." OTG_FS_HOST_OTG_FS_HCCHAR10: " OTG_FS_HOST_OTG_FS_HCCHAR10 @ hex. cr
." OTG_FS_HOST_OTG_FS_HCINT10: " OTG_FS_HOST_OTG_FS_HCINT10 @ hex. cr
." OTG_FS_HOST_OTG_FS_HCINTMSK10: " OTG_FS_HOST_OTG_FS_HCINTMSK10 @ hex. cr
." OTG_FS_HOST_OTG_FS_HCTSIZ10: " OTG_FS_HOST_OTG_FS_HCTSIZ10 @ hex. cr
." OTG_FS_HOST_OTG_FS_HCCHAR11: " OTG_FS_HOST_OTG_FS_HCCHAR11 @ hex. cr
." OTG_FS_HOST_OTG_FS_HCINT11: " OTG_FS_HOST_OTG_FS_HCINT11 @ hex. cr
." OTG_FS_HOST_OTG_FS_HCINTMSK11: " OTG_FS_HOST_OTG_FS_HCINTMSK11 @ hex. cr
." OTG_FS_HOST_OTG_FS_HCTSIZ11: " OTG_FS_HOST_OTG_FS_HCTSIZ11 @ hex. cr
;

: OTG_FS_DEVICE. cr
." OTG_FS_DEVICE_OTG_FS_DCFG: " OTG_FS_DEVICE_OTG_FS_DCFG @ hex. cr
." OTG_FS_DEVICE_OTG_FS_DCTL: " OTG_FS_DEVICE_OTG_FS_DCTL @ hex. cr
." OTG_FS_DEVICE_OTG_FS_DSTS: " OTG_FS_DEVICE_OTG_FS_DSTS @ hex. cr
." OTG_FS_DEVICE_OTG_FS_DIEPMSK: " OTG_FS_DEVICE_OTG_FS_DIEPMSK @ hex. cr
." OTG_FS_DEVICE_OTG_FS_DOEPMSK: " OTG_FS_DEVICE_OTG_FS_DOEPMSK @ hex. cr
." OTG_FS_DEVICE_OTG_FS_DAINT: " OTG_FS_DEVICE_OTG_FS_DAINT @ hex. cr
." OTG_FS_DEVICE_OTG_FS_DAINTMSK: " OTG_FS_DEVICE_OTG_FS_DAINTMSK @ hex. cr
." OTG_FS_DEVICE_OTG_FS_DVBUSDIS: " OTG_FS_DEVICE_OTG_FS_DVBUSDIS @ hex. cr
." OTG_FS_DEVICE_OTG_FS_DVBUSPULSE: " OTG_FS_DEVICE_OTG_FS_DVBUSPULSE @ hex. cr
." OTG_FS_DEVICE_OTG_FS_DIEPEMPMSK: " OTG_FS_DEVICE_OTG_FS_DIEPEMPMSK @ hex. cr
." OTG_FS_DEVICE_OTG_FS_DIEPCTL0: " OTG_FS_DEVICE_OTG_FS_DIEPCTL0 @ hex. cr
." OTG_FS_DEVICE_OTG_FS_DIEPCTL1: " OTG_FS_DEVICE_OTG_FS_DIEPCTL1 @ hex. cr
." OTG_FS_DEVICE_OTG_FS_DIEPCTL2: " OTG_FS_DEVICE_OTG_FS_DIEPCTL2 @ hex. cr
." OTG_FS_DEVICE_OTG_FS_DIEPCTL3: " OTG_FS_DEVICE_OTG_FS_DIEPCTL3 @ hex. cr
." OTG_FS_DEVICE_OTG_FS_DOEPCTL0: " OTG_FS_DEVICE_OTG_FS_DOEPCTL0 @ hex. cr
." OTG_FS_DEVICE_OTG_FS_DOEPCTL1: " OTG_FS_DEVICE_OTG_FS_DOEPCTL1 @ hex. cr
." OTG_FS_DEVICE_OTG_FS_DOEPCTL2: " OTG_FS_DEVICE_OTG_FS_DOEPCTL2 @ hex. cr
." OTG_FS_DEVICE_OTG_FS_DOEPCTL3: " OTG_FS_DEVICE_OTG_FS_DOEPCTL3 @ hex. cr
." OTG_FS_DEVICE_OTG_FS_DIEPINT0: " OTG_FS_DEVICE_OTG_FS_DIEPINT0 @ hex. cr
." OTG_FS_DEVICE_OTG_FS_DIEPINT1: " OTG_FS_DEVICE_OTG_FS_DIEPINT1 @ hex. cr
." OTG_FS_DEVICE_OTG_FS_DIEPINT2: " OTG_FS_DEVICE_OTG_FS_DIEPINT2 @ hex. cr
." OTG_FS_DEVICE_OTG_FS_DIEPINT3: " OTG_FS_DEVICE_OTG_FS_DIEPINT3 @ hex. cr
." OTG_FS_DEVICE_OTG_FS_DOEPINT0: " OTG_FS_DEVICE_OTG_FS_DOEPINT0 @ hex. cr
." OTG_FS_DEVICE_OTG_FS_DOEPINT1: " OTG_FS_DEVICE_OTG_FS_DOEPINT1 @ hex. cr
." OTG_FS_DEVICE_OTG_FS_DOEPINT2: " OTG_FS_DEVICE_OTG_FS_DOEPINT2 @ hex. cr
." OTG_FS_DEVICE_OTG_FS_DOEPINT3: " OTG_FS_DEVICE_OTG_FS_DOEPINT3 @ hex. cr
." OTG_FS_DEVICE_OTG_FS_DIEPTSIZ0: " OTG_FS_DEVICE_OTG_FS_DIEPTSIZ0 @ hex. cr
." OTG_FS_DEVICE_OTG_FS_DOEPTSIZ0: " OTG_FS_DEVICE_OTG_FS_DOEPTSIZ0 @ hex. cr
." OTG_FS_DEVICE_OTG_FS_DIEPTSIZ1: " OTG_FS_DEVICE_OTG_FS_DIEPTSIZ1 @ hex. cr
." OTG_FS_DEVICE_OTG_FS_DIEPTSIZ2: " OTG_FS_DEVICE_OTG_FS_DIEPTSIZ2 @ hex. cr
." OTG_FS_DEVICE_OTG_FS_DIEPTSIZ3: " OTG_FS_DEVICE_OTG_FS_DIEPTSIZ3 @ hex. cr
." OTG_FS_DEVICE_OTG_FS_DTXFSTS0: " OTG_FS_DEVICE_OTG_FS_DTXFSTS0 @ hex. cr
." OTG_FS_DEVICE_OTG_FS_DTXFSTS1: " OTG_FS_DEVICE_OTG_FS_DTXFSTS1 @ hex. cr
." OTG_FS_DEVICE_OTG_FS_DTXFSTS2: " OTG_FS_DEVICE_OTG_FS_DTXFSTS2 @ hex. cr
." OTG_FS_DEVICE_OTG_FS_DTXFSTS3: " OTG_FS_DEVICE_OTG_FS_DTXFSTS3 @ hex. cr
." OTG_FS_DEVICE_OTG_FS_DOEPTSIZ1: " OTG_FS_DEVICE_OTG_FS_DOEPTSIZ1 @ hex. cr
." OTG_FS_DEVICE_OTG_FS_DOEPTSIZ2: " OTG_FS_DEVICE_OTG_FS_DOEPTSIZ2 @ hex. cr
." OTG_FS_DEVICE_OTG_FS_DOEPTSIZ3: " OTG_FS_DEVICE_OTG_FS_DOEPTSIZ3 @ hex. cr
." OTG_FS_DEVICE_OTG_FS_DIEPCTL4: " OTG_FS_DEVICE_OTG_FS_DIEPCTL4 @ hex. cr
." OTG_FS_DEVICE_OTG_FS_DIEPINT4: " OTG_FS_DEVICE_OTG_FS_DIEPINT4 @ hex. cr
." OTG_FS_DEVICE_OTG_FS_DIEPTSIZ4: " OTG_FS_DEVICE_OTG_FS_DIEPTSIZ4 @ hex. cr
." OTG_FS_DEVICE_OTG_FS_DTXFSTS4: " OTG_FS_DEVICE_OTG_FS_DTXFSTS4 @ hex. cr
." OTG_FS_DEVICE_OTG_FS_DIEPCTL5: " OTG_FS_DEVICE_OTG_FS_DIEPCTL5 @ hex. cr
." OTG_FS_DEVICE_OTG_FS_DIEPINT5: " OTG_FS_DEVICE_OTG_FS_DIEPINT5 @ hex. cr
." OTG_FS_DEVICE_OTG_FS_DIEPTSIZ55: " OTG_FS_DEVICE_OTG_FS_DIEPTSIZ55 @ hex. cr
." OTG_FS_DEVICE_OTG_FS_DTXFSTS55: " OTG_FS_DEVICE_OTG_FS_DTXFSTS55 @ hex. cr
." OTG_FS_DEVICE_OTG_FS_DOEPCTL4: " OTG_FS_DEVICE_OTG_FS_DOEPCTL4 @ hex. cr
." OTG_FS_DEVICE_OTG_FS_DOEPINT4: " OTG_FS_DEVICE_OTG_FS_DOEPINT4 @ hex. cr
." OTG_FS_DEVICE_OTG_FS_DOEPTSIZ4: " OTG_FS_DEVICE_OTG_FS_DOEPTSIZ4 @ hex. cr
." OTG_FS_DEVICE_OTG_FS_DOEPCTL5: " OTG_FS_DEVICE_OTG_FS_DOEPCTL5 @ hex. cr
." OTG_FS_DEVICE_OTG_FS_DOEPINT5: " OTG_FS_DEVICE_OTG_FS_DOEPINT5 @ hex. cr
." OTG_FS_DEVICE_OTG_FS_DOEPTSIZ5: " OTG_FS_DEVICE_OTG_FS_DOEPTSIZ5 @ hex. cr
;

: OTG_FS_PWRCLK. cr
." OTG_FS_PWRCLK_OTG_FS_PCGCCTL: " OTG_FS_PWRCLK_OTG_FS_PCGCCTL @ hex. cr
;

: OTG_HS_GLOBAL. cr
." OTG_HS_GLOBAL_OTG_HS_GOTGCTL: " OTG_HS_GLOBAL_OTG_HS_GOTGCTL @ hex. cr
." OTG_HS_GLOBAL_OTG_HS_GOTGINT: " OTG_HS_GLOBAL_OTG_HS_GOTGINT @ hex. cr
." OTG_HS_GLOBAL_OTG_HS_GAHBCFG: " OTG_HS_GLOBAL_OTG_HS_GAHBCFG @ hex. cr
." OTG_HS_GLOBAL_OTG_HS_GUSBCFG: " OTG_HS_GLOBAL_OTG_HS_GUSBCFG @ hex. cr
." OTG_HS_GLOBAL_OTG_HS_GRSTCTL: " OTG_HS_GLOBAL_OTG_HS_GRSTCTL @ hex. cr
." OTG_HS_GLOBAL_OTG_HS_GINTSTS: " OTG_HS_GLOBAL_OTG_HS_GINTSTS @ hex. cr
." OTG_HS_GLOBAL_OTG_HS_GINTMSK: " OTG_HS_GLOBAL_OTG_HS_GINTMSK @ hex. cr
." OTG_HS_GLOBAL_OTG_HS_GRXSTSR_Host: " OTG_HS_GLOBAL_OTG_HS_GRXSTSR_Host @ hex. cr
." OTG_HS_GLOBAL_OTG_HS_GRXSTSP_Host: " OTG_HS_GLOBAL_OTG_HS_GRXSTSP_Host @ hex. cr
." OTG_HS_GLOBAL_OTG_HS_GRXFSIZ: " OTG_HS_GLOBAL_OTG_HS_GRXFSIZ @ hex. cr
." OTG_HS_GLOBAL_OTG_HS_HNPTXFSIZ_Host: " OTG_HS_GLOBAL_OTG_HS_HNPTXFSIZ_Host @ hex. cr
." OTG_HS_GLOBAL_OTG_HS_DIEPTXF0_Device: " OTG_HS_GLOBAL_OTG_HS_DIEPTXF0_Device @ hex. cr
." OTG_HS_GLOBAL_OTG_HS_GNPTXSTS: " OTG_HS_GLOBAL_OTG_HS_GNPTXSTS @ hex. cr
." OTG_HS_GLOBAL_OTG_HS_GCCFG: " OTG_HS_GLOBAL_OTG_HS_GCCFG @ hex. cr
." OTG_HS_GLOBAL_OTG_HS_CID: " OTG_HS_GLOBAL_OTG_HS_CID @ hex. cr
." OTG_HS_GLOBAL_OTG_HS_HPTXFSIZ: " OTG_HS_GLOBAL_OTG_HS_HPTXFSIZ @ hex. cr
." OTG_HS_GLOBAL_OTG_HS_DIEPTXF1: " OTG_HS_GLOBAL_OTG_HS_DIEPTXF1 @ hex. cr
." OTG_HS_GLOBAL_OTG_HS_DIEPTXF2: " OTG_HS_GLOBAL_OTG_HS_DIEPTXF2 @ hex. cr
." OTG_HS_GLOBAL_OTG_HS_DIEPTXF3: " OTG_HS_GLOBAL_OTG_HS_DIEPTXF3 @ hex. cr
." OTG_HS_GLOBAL_OTG_HS_DIEPTXF4: " OTG_HS_GLOBAL_OTG_HS_DIEPTXF4 @ hex. cr
." OTG_HS_GLOBAL_OTG_HS_DIEPTXF5: " OTG_HS_GLOBAL_OTG_HS_DIEPTXF5 @ hex. cr
." OTG_HS_GLOBAL_OTG_HS_DIEPTXF6: " OTG_HS_GLOBAL_OTG_HS_DIEPTXF6 @ hex. cr
." OTG_HS_GLOBAL_OTG_HS_DIEPTXF7: " OTG_HS_GLOBAL_OTG_HS_DIEPTXF7 @ hex. cr
." OTG_HS_GLOBAL_OTG_HS_GRXSTSR_Device: " OTG_HS_GLOBAL_OTG_HS_GRXSTSR_Device @ hex. cr
." OTG_HS_GLOBAL_OTG_HS_GRXSTSP_Device: " OTG_HS_GLOBAL_OTG_HS_GRXSTSP_Device @ hex. cr
." OTG_HS_GLOBAL_OTG_HS_GLPMCFG: " OTG_HS_GLOBAL_OTG_HS_GLPMCFG @ hex. cr
;

: OTG_HS_HOST. cr
." OTG_HS_HOST_OTG_HS_HCFG: " OTG_HS_HOST_OTG_HS_HCFG @ hex. cr
." OTG_HS_HOST_OTG_HS_HFIR: " OTG_HS_HOST_OTG_HS_HFIR @ hex. cr
." OTG_HS_HOST_OTG_HS_HFNUM: " OTG_HS_HOST_OTG_HS_HFNUM @ hex. cr
." OTG_HS_HOST_OTG_HS_HPTXSTS: " OTG_HS_HOST_OTG_HS_HPTXSTS @ hex. cr
." OTG_HS_HOST_OTG_HS_HAINT: " OTG_HS_HOST_OTG_HS_HAINT @ hex. cr
." OTG_HS_HOST_OTG_HS_HAINTMSK: " OTG_HS_HOST_OTG_HS_HAINTMSK @ hex. cr
." OTG_HS_HOST_OTG_HS_HPRT: " OTG_HS_HOST_OTG_HS_HPRT @ hex. cr
." OTG_HS_HOST_OTG_HS_HCCHAR0: " OTG_HS_HOST_OTG_HS_HCCHAR0 @ hex. cr
." OTG_HS_HOST_OTG_HS_HCCHAR1: " OTG_HS_HOST_OTG_HS_HCCHAR1 @ hex. cr
." OTG_HS_HOST_OTG_HS_HCCHAR2: " OTG_HS_HOST_OTG_HS_HCCHAR2 @ hex. cr
." OTG_HS_HOST_OTG_HS_HCCHAR3: " OTG_HS_HOST_OTG_HS_HCCHAR3 @ hex. cr
." OTG_HS_HOST_OTG_HS_HCCHAR4: " OTG_HS_HOST_OTG_HS_HCCHAR4 @ hex. cr
." OTG_HS_HOST_OTG_HS_HCCHAR5: " OTG_HS_HOST_OTG_HS_HCCHAR5 @ hex. cr
." OTG_HS_HOST_OTG_HS_HCCHAR6: " OTG_HS_HOST_OTG_HS_HCCHAR6 @ hex. cr
." OTG_HS_HOST_OTG_HS_HCCHAR7: " OTG_HS_HOST_OTG_HS_HCCHAR7 @ hex. cr
." OTG_HS_HOST_OTG_HS_HCCHAR8: " OTG_HS_HOST_OTG_HS_HCCHAR8 @ hex. cr
." OTG_HS_HOST_OTG_HS_HCCHAR9: " OTG_HS_HOST_OTG_HS_HCCHAR9 @ hex. cr
." OTG_HS_HOST_OTG_HS_HCCHAR10: " OTG_HS_HOST_OTG_HS_HCCHAR10 @ hex. cr
." OTG_HS_HOST_OTG_HS_HCCHAR11: " OTG_HS_HOST_OTG_HS_HCCHAR11 @ hex. cr
." OTG_HS_HOST_OTG_HS_HCSPLT0: " OTG_HS_HOST_OTG_HS_HCSPLT0 @ hex. cr
." OTG_HS_HOST_OTG_HS_HCSPLT1: " OTG_HS_HOST_OTG_HS_HCSPLT1 @ hex. cr
." OTG_HS_HOST_OTG_HS_HCSPLT2: " OTG_HS_HOST_OTG_HS_HCSPLT2 @ hex. cr
." OTG_HS_HOST_OTG_HS_HCSPLT3: " OTG_HS_HOST_OTG_HS_HCSPLT3 @ hex. cr
." OTG_HS_HOST_OTG_HS_HCSPLT4: " OTG_HS_HOST_OTG_HS_HCSPLT4 @ hex. cr
." OTG_HS_HOST_OTG_HS_HCSPLT5: " OTG_HS_HOST_OTG_HS_HCSPLT5 @ hex. cr
." OTG_HS_HOST_OTG_HS_HCSPLT6: " OTG_HS_HOST_OTG_HS_HCSPLT6 @ hex. cr
." OTG_HS_HOST_OTG_HS_HCSPLT7: " OTG_HS_HOST_OTG_HS_HCSPLT7 @ hex. cr
." OTG_HS_HOST_OTG_HS_HCSPLT8: " OTG_HS_HOST_OTG_HS_HCSPLT8 @ hex. cr
." OTG_HS_HOST_OTG_HS_HCSPLT9: " OTG_HS_HOST_OTG_HS_HCSPLT9 @ hex. cr
." OTG_HS_HOST_OTG_HS_HCSPLT10: " OTG_HS_HOST_OTG_HS_HCSPLT10 @ hex. cr
." OTG_HS_HOST_OTG_HS_HCSPLT11: " OTG_HS_HOST_OTG_HS_HCSPLT11 @ hex. cr
." OTG_HS_HOST_OTG_HS_HCINT0: " OTG_HS_HOST_OTG_HS_HCINT0 @ hex. cr
." OTG_HS_HOST_OTG_HS_HCINT1: " OTG_HS_HOST_OTG_HS_HCINT1 @ hex. cr
." OTG_HS_HOST_OTG_HS_HCINT2: " OTG_HS_HOST_OTG_HS_HCINT2 @ hex. cr
." OTG_HS_HOST_OTG_HS_HCINT3: " OTG_HS_HOST_OTG_HS_HCINT3 @ hex. cr
." OTG_HS_HOST_OTG_HS_HCINT4: " OTG_HS_HOST_OTG_HS_HCINT4 @ hex. cr
." OTG_HS_HOST_OTG_HS_HCINT5: " OTG_HS_HOST_OTG_HS_HCINT5 @ hex. cr
." OTG_HS_HOST_OTG_HS_HCINT6: " OTG_HS_HOST_OTG_HS_HCINT6 @ hex. cr
." OTG_HS_HOST_OTG_HS_HCINT7: " OTG_HS_HOST_OTG_HS_HCINT7 @ hex. cr
." OTG_HS_HOST_OTG_HS_HCINT8: " OTG_HS_HOST_OTG_HS_HCINT8 @ hex. cr
." OTG_HS_HOST_OTG_HS_HCINT9: " OTG_HS_HOST_OTG_HS_HCINT9 @ hex. cr
." OTG_HS_HOST_OTG_HS_HCINT10: " OTG_HS_HOST_OTG_HS_HCINT10 @ hex. cr
." OTG_HS_HOST_OTG_HS_HCINT11: " OTG_HS_HOST_OTG_HS_HCINT11 @ hex. cr
." OTG_HS_HOST_OTG_HS_HCINTMSK0: " OTG_HS_HOST_OTG_HS_HCINTMSK0 @ hex. cr
." OTG_HS_HOST_OTG_HS_HCINTMSK1: " OTG_HS_HOST_OTG_HS_HCINTMSK1 @ hex. cr
." OTG_HS_HOST_OTG_HS_HCINTMSK2: " OTG_HS_HOST_OTG_HS_HCINTMSK2 @ hex. cr
." OTG_HS_HOST_OTG_HS_HCINTMSK3: " OTG_HS_HOST_OTG_HS_HCINTMSK3 @ hex. cr
." OTG_HS_HOST_OTG_HS_HCINTMSK4: " OTG_HS_HOST_OTG_HS_HCINTMSK4 @ hex. cr
." OTG_HS_HOST_OTG_HS_HCINTMSK5: " OTG_HS_HOST_OTG_HS_HCINTMSK5 @ hex. cr
." OTG_HS_HOST_OTG_HS_HCINTMSK6: " OTG_HS_HOST_OTG_HS_HCINTMSK6 @ hex. cr
." OTG_HS_HOST_OTG_HS_HCINTMSK7: " OTG_HS_HOST_OTG_HS_HCINTMSK7 @ hex. cr
." OTG_HS_HOST_OTG_HS_HCINTMSK8: " OTG_HS_HOST_OTG_HS_HCINTMSK8 @ hex. cr
." OTG_HS_HOST_OTG_HS_HCINTMSK9: " OTG_HS_HOST_OTG_HS_HCINTMSK9 @ hex. cr
." OTG_HS_HOST_OTG_HS_HCINTMSK10: " OTG_HS_HOST_OTG_HS_HCINTMSK10 @ hex. cr
." OTG_HS_HOST_OTG_HS_HCINTMSK11: " OTG_HS_HOST_OTG_HS_HCINTMSK11 @ hex. cr
." OTG_HS_HOST_OTG_HS_HCTSIZ0: " OTG_HS_HOST_OTG_HS_HCTSIZ0 @ hex. cr
." OTG_HS_HOST_OTG_HS_HCTSIZ1: " OTG_HS_HOST_OTG_HS_HCTSIZ1 @ hex. cr
." OTG_HS_HOST_OTG_HS_HCTSIZ2: " OTG_HS_HOST_OTG_HS_HCTSIZ2 @ hex. cr
." OTG_HS_HOST_OTG_HS_HCTSIZ3: " OTG_HS_HOST_OTG_HS_HCTSIZ3 @ hex. cr
." OTG_HS_HOST_OTG_HS_HCTSIZ4: " OTG_HS_HOST_OTG_HS_HCTSIZ4 @ hex. cr
." OTG_HS_HOST_OTG_HS_HCTSIZ5: " OTG_HS_HOST_OTG_HS_HCTSIZ5 @ hex. cr
." OTG_HS_HOST_OTG_HS_HCTSIZ6: " OTG_HS_HOST_OTG_HS_HCTSIZ6 @ hex. cr
." OTG_HS_HOST_OTG_HS_HCTSIZ7: " OTG_HS_HOST_OTG_HS_HCTSIZ7 @ hex. cr
." OTG_HS_HOST_OTG_HS_HCTSIZ8: " OTG_HS_HOST_OTG_HS_HCTSIZ8 @ hex. cr
." OTG_HS_HOST_OTG_HS_HCTSIZ9: " OTG_HS_HOST_OTG_HS_HCTSIZ9 @ hex. cr
." OTG_HS_HOST_OTG_HS_HCTSIZ10: " OTG_HS_HOST_OTG_HS_HCTSIZ10 @ hex. cr
." OTG_HS_HOST_OTG_HS_HCTSIZ11: " OTG_HS_HOST_OTG_HS_HCTSIZ11 @ hex. cr
." OTG_HS_HOST_OTG_HS_HCDMA0: " OTG_HS_HOST_OTG_HS_HCDMA0 @ hex. cr
." OTG_HS_HOST_OTG_HS_HCDMA1: " OTG_HS_HOST_OTG_HS_HCDMA1 @ hex. cr
." OTG_HS_HOST_OTG_HS_HCDMA2: " OTG_HS_HOST_OTG_HS_HCDMA2 @ hex. cr
." OTG_HS_HOST_OTG_HS_HCDMA3: " OTG_HS_HOST_OTG_HS_HCDMA3 @ hex. cr
." OTG_HS_HOST_OTG_HS_HCDMA4: " OTG_HS_HOST_OTG_HS_HCDMA4 @ hex. cr
." OTG_HS_HOST_OTG_HS_HCDMA5: " OTG_HS_HOST_OTG_HS_HCDMA5 @ hex. cr
." OTG_HS_HOST_OTG_HS_HCDMA6: " OTG_HS_HOST_OTG_HS_HCDMA6 @ hex. cr
." OTG_HS_HOST_OTG_HS_HCDMA7: " OTG_HS_HOST_OTG_HS_HCDMA7 @ hex. cr
." OTG_HS_HOST_OTG_HS_HCDMA8: " OTG_HS_HOST_OTG_HS_HCDMA8 @ hex. cr
." OTG_HS_HOST_OTG_HS_HCDMA9: " OTG_HS_HOST_OTG_HS_HCDMA9 @ hex. cr
." OTG_HS_HOST_OTG_HS_HCDMA10: " OTG_HS_HOST_OTG_HS_HCDMA10 @ hex. cr
." OTG_HS_HOST_OTG_HS_HCDMA11: " OTG_HS_HOST_OTG_HS_HCDMA11 @ hex. cr
." OTG_HS_HOST_OTG_HS_HCCHAR12: " OTG_HS_HOST_OTG_HS_HCCHAR12 @ hex. cr
." OTG_HS_HOST_OTG_HS_HCSPLT12: " OTG_HS_HOST_OTG_HS_HCSPLT12 @ hex. cr
." OTG_HS_HOST_OTG_HS_HCINT12: " OTG_HS_HOST_OTG_HS_HCINT12 @ hex. cr
." OTG_HS_HOST_OTG_HS_HCINTMSK12: " OTG_HS_HOST_OTG_HS_HCINTMSK12 @ hex. cr
." OTG_HS_HOST_OTG_HS_HCTSIZ12: " OTG_HS_HOST_OTG_HS_HCTSIZ12 @ hex. cr
." OTG_HS_HOST_OTG_HS_HCDMA12: " OTG_HS_HOST_OTG_HS_HCDMA12 @ hex. cr
." OTG_HS_HOST_OTG_HS_HCCHAR13: " OTG_HS_HOST_OTG_HS_HCCHAR13 @ hex. cr
." OTG_HS_HOST_OTG_HS_HCSPLT13: " OTG_HS_HOST_OTG_HS_HCSPLT13 @ hex. cr
." OTG_HS_HOST_OTG_HS_HCINT13: " OTG_HS_HOST_OTG_HS_HCINT13 @ hex. cr
." OTG_HS_HOST_OTG_HS_HCINTMSK13: " OTG_HS_HOST_OTG_HS_HCINTMSK13 @ hex. cr
." OTG_HS_HOST_OTG_HS_HCTSIZ13: " OTG_HS_HOST_OTG_HS_HCTSIZ13 @ hex. cr
." OTG_HS_HOST_OTG_HS_HCDMA13: " OTG_HS_HOST_OTG_HS_HCDMA13 @ hex. cr
." OTG_HS_HOST_OTG_HS_HCCHAR14: " OTG_HS_HOST_OTG_HS_HCCHAR14 @ hex. cr
." OTG_HS_HOST_OTG_HS_HCSPLT14: " OTG_HS_HOST_OTG_HS_HCSPLT14 @ hex. cr
." OTG_HS_HOST_OTG_HS_HCINT14: " OTG_HS_HOST_OTG_HS_HCINT14 @ hex. cr
." OTG_HS_HOST_OTG_HS_HCINTMSK14: " OTG_HS_HOST_OTG_HS_HCINTMSK14 @ hex. cr
." OTG_HS_HOST_OTG_HS_HCTSIZ14: " OTG_HS_HOST_OTG_HS_HCTSIZ14 @ hex. cr
." OTG_HS_HOST_OTG_HS_HCDMA14: " OTG_HS_HOST_OTG_HS_HCDMA14 @ hex. cr
." OTG_HS_HOST_OTG_HS_HCCHAR15: " OTG_HS_HOST_OTG_HS_HCCHAR15 @ hex. cr
." OTG_HS_HOST_OTG_HS_HCSPLT15: " OTG_HS_HOST_OTG_HS_HCSPLT15 @ hex. cr
." OTG_HS_HOST_OTG_HS_HCINT15: " OTG_HS_HOST_OTG_HS_HCINT15 @ hex. cr
." OTG_HS_HOST_OTG_HS_HCINTMSK15: " OTG_HS_HOST_OTG_HS_HCINTMSK15 @ hex. cr
." OTG_HS_HOST_OTG_HS_HCTSIZ15: " OTG_HS_HOST_OTG_HS_HCTSIZ15 @ hex. cr
." OTG_HS_HOST_OTG_HS_HCDMA15: " OTG_HS_HOST_OTG_HS_HCDMA15 @ hex. cr
;

: OTG_HS_DEVICE. cr
." OTG_HS_DEVICE_OTG_HS_DCFG: " OTG_HS_DEVICE_OTG_HS_DCFG @ hex. cr
." OTG_HS_DEVICE_OTG_HS_DCTL: " OTG_HS_DEVICE_OTG_HS_DCTL @ hex. cr
." OTG_HS_DEVICE_OTG_HS_DSTS: " OTG_HS_DEVICE_OTG_HS_DSTS @ hex. cr
." OTG_HS_DEVICE_OTG_HS_DIEPMSK: " OTG_HS_DEVICE_OTG_HS_DIEPMSK @ hex. cr
." OTG_HS_DEVICE_OTG_HS_DOEPMSK: " OTG_HS_DEVICE_OTG_HS_DOEPMSK @ hex. cr
." OTG_HS_DEVICE_OTG_HS_DAINT: " OTG_HS_DEVICE_OTG_HS_DAINT @ hex. cr
." OTG_HS_DEVICE_OTG_HS_DAINTMSK: " OTG_HS_DEVICE_OTG_HS_DAINTMSK @ hex. cr
." OTG_HS_DEVICE_OTG_HS_DVBUSDIS: " OTG_HS_DEVICE_OTG_HS_DVBUSDIS @ hex. cr
." OTG_HS_DEVICE_OTG_HS_DVBUSPULSE: " OTG_HS_DEVICE_OTG_HS_DVBUSPULSE @ hex. cr
." OTG_HS_DEVICE_OTG_HS_DTHRCTL: " OTG_HS_DEVICE_OTG_HS_DTHRCTL @ hex. cr
." OTG_HS_DEVICE_OTG_HS_DIEPEMPMSK: " OTG_HS_DEVICE_OTG_HS_DIEPEMPMSK @ hex. cr
." OTG_HS_DEVICE_OTG_HS_DEACHINT: " OTG_HS_DEVICE_OTG_HS_DEACHINT @ hex. cr
." OTG_HS_DEVICE_OTG_HS_DEACHINTMSK: " OTG_HS_DEVICE_OTG_HS_DEACHINTMSK @ hex. cr
." OTG_HS_DEVICE_OTG_HS_DIEPCTL0: " OTG_HS_DEVICE_OTG_HS_DIEPCTL0 @ hex. cr
." OTG_HS_DEVICE_OTG_HS_DIEPCTL1: " OTG_HS_DEVICE_OTG_HS_DIEPCTL1 @ hex. cr
." OTG_HS_DEVICE_OTG_HS_DIEPCTL2: " OTG_HS_DEVICE_OTG_HS_DIEPCTL2 @ hex. cr
." OTG_HS_DEVICE_OTG_HS_DIEPCTL3: " OTG_HS_DEVICE_OTG_HS_DIEPCTL3 @ hex. cr
." OTG_HS_DEVICE_OTG_HS_DIEPCTL4: " OTG_HS_DEVICE_OTG_HS_DIEPCTL4 @ hex. cr
." OTG_HS_DEVICE_OTG_HS_DIEPCTL5: " OTG_HS_DEVICE_OTG_HS_DIEPCTL5 @ hex. cr
." OTG_HS_DEVICE_OTG_HS_DIEPCTL6: " OTG_HS_DEVICE_OTG_HS_DIEPCTL6 @ hex. cr
." OTG_HS_DEVICE_OTG_HS_DIEPCTL7: " OTG_HS_DEVICE_OTG_HS_DIEPCTL7 @ hex. cr
." OTG_HS_DEVICE_OTG_HS_DIEPINT0: " OTG_HS_DEVICE_OTG_HS_DIEPINT0 @ hex. cr
." OTG_HS_DEVICE_OTG_HS_DIEPINT1: " OTG_HS_DEVICE_OTG_HS_DIEPINT1 @ hex. cr
." OTG_HS_DEVICE_OTG_HS_DIEPINT2: " OTG_HS_DEVICE_OTG_HS_DIEPINT2 @ hex. cr
." OTG_HS_DEVICE_OTG_HS_DIEPINT3: " OTG_HS_DEVICE_OTG_HS_DIEPINT3 @ hex. cr
." OTG_HS_DEVICE_OTG_HS_DIEPINT4: " OTG_HS_DEVICE_OTG_HS_DIEPINT4 @ hex. cr
." OTG_HS_DEVICE_OTG_HS_DIEPINT5: " OTG_HS_DEVICE_OTG_HS_DIEPINT5 @ hex. cr
." OTG_HS_DEVICE_OTG_HS_DIEPINT6: " OTG_HS_DEVICE_OTG_HS_DIEPINT6 @ hex. cr
." OTG_HS_DEVICE_OTG_HS_DIEPINT7: " OTG_HS_DEVICE_OTG_HS_DIEPINT7 @ hex. cr
." OTG_HS_DEVICE_OTG_HS_DIEPTSIZ0: " OTG_HS_DEVICE_OTG_HS_DIEPTSIZ0 @ hex. cr
." OTG_HS_DEVICE_OTG_HS_DIEPDMA1: " OTG_HS_DEVICE_OTG_HS_DIEPDMA1 @ hex. cr
." OTG_HS_DEVICE_OTG_HS_DIEPDMA2: " OTG_HS_DEVICE_OTG_HS_DIEPDMA2 @ hex. cr
." OTG_HS_DEVICE_OTG_HS_DIEPDMA3: " OTG_HS_DEVICE_OTG_HS_DIEPDMA3 @ hex. cr
." OTG_HS_DEVICE_OTG_HS_DIEPDMA4: " OTG_HS_DEVICE_OTG_HS_DIEPDMA4 @ hex. cr
." OTG_HS_DEVICE_OTG_HS_DIEPDMA5: " OTG_HS_DEVICE_OTG_HS_DIEPDMA5 @ hex. cr
." OTG_HS_DEVICE_OTG_HS_DTXFSTS0: " OTG_HS_DEVICE_OTG_HS_DTXFSTS0 @ hex. cr
." OTG_HS_DEVICE_OTG_HS_DTXFSTS1: " OTG_HS_DEVICE_OTG_HS_DTXFSTS1 @ hex. cr
." OTG_HS_DEVICE_OTG_HS_DTXFSTS2: " OTG_HS_DEVICE_OTG_HS_DTXFSTS2 @ hex. cr
." OTG_HS_DEVICE_OTG_HS_DTXFSTS3: " OTG_HS_DEVICE_OTG_HS_DTXFSTS3 @ hex. cr
." OTG_HS_DEVICE_OTG_HS_DTXFSTS4: " OTG_HS_DEVICE_OTG_HS_DTXFSTS4 @ hex. cr
." OTG_HS_DEVICE_OTG_HS_DTXFSTS5: " OTG_HS_DEVICE_OTG_HS_DTXFSTS5 @ hex. cr
." OTG_HS_DEVICE_OTG_HS_DIEPTSIZ1: " OTG_HS_DEVICE_OTG_HS_DIEPTSIZ1 @ hex. cr
." OTG_HS_DEVICE_OTG_HS_DIEPTSIZ2: " OTG_HS_DEVICE_OTG_HS_DIEPTSIZ2 @ hex. cr
." OTG_HS_DEVICE_OTG_HS_DIEPTSIZ3: " OTG_HS_DEVICE_OTG_HS_DIEPTSIZ3 @ hex. cr
." OTG_HS_DEVICE_OTG_HS_DIEPTSIZ4: " OTG_HS_DEVICE_OTG_HS_DIEPTSIZ4 @ hex. cr
." OTG_HS_DEVICE_OTG_HS_DIEPTSIZ5: " OTG_HS_DEVICE_OTG_HS_DIEPTSIZ5 @ hex. cr
." OTG_HS_DEVICE_OTG_HS_DOEPCTL0: " OTG_HS_DEVICE_OTG_HS_DOEPCTL0 @ hex. cr
." OTG_HS_DEVICE_OTG_HS_DOEPCTL1: " OTG_HS_DEVICE_OTG_HS_DOEPCTL1 @ hex. cr
." OTG_HS_DEVICE_OTG_HS_DOEPCTL2: " OTG_HS_DEVICE_OTG_HS_DOEPCTL2 @ hex. cr
." OTG_HS_DEVICE_OTG_HS_DOEPCTL3: " OTG_HS_DEVICE_OTG_HS_DOEPCTL3 @ hex. cr
." OTG_HS_DEVICE_OTG_HS_DOEPINT0: " OTG_HS_DEVICE_OTG_HS_DOEPINT0 @ hex. cr
." OTG_HS_DEVICE_OTG_HS_DOEPINT1: " OTG_HS_DEVICE_OTG_HS_DOEPINT1 @ hex. cr
." OTG_HS_DEVICE_OTG_HS_DOEPINT2: " OTG_HS_DEVICE_OTG_HS_DOEPINT2 @ hex. cr
." OTG_HS_DEVICE_OTG_HS_DOEPINT3: " OTG_HS_DEVICE_OTG_HS_DOEPINT3 @ hex. cr
." OTG_HS_DEVICE_OTG_HS_DOEPINT4: " OTG_HS_DEVICE_OTG_HS_DOEPINT4 @ hex. cr
." OTG_HS_DEVICE_OTG_HS_DOEPINT5: " OTG_HS_DEVICE_OTG_HS_DOEPINT5 @ hex. cr
." OTG_HS_DEVICE_OTG_HS_DOEPINT6: " OTG_HS_DEVICE_OTG_HS_DOEPINT6 @ hex. cr
." OTG_HS_DEVICE_OTG_HS_DOEPINT7: " OTG_HS_DEVICE_OTG_HS_DOEPINT7 @ hex. cr
." OTG_HS_DEVICE_OTG_HS_DOEPTSIZ0: " OTG_HS_DEVICE_OTG_HS_DOEPTSIZ0 @ hex. cr
." OTG_HS_DEVICE_OTG_HS_DOEPTSIZ1: " OTG_HS_DEVICE_OTG_HS_DOEPTSIZ1 @ hex. cr
." OTG_HS_DEVICE_OTG_HS_DOEPTSIZ2: " OTG_HS_DEVICE_OTG_HS_DOEPTSIZ2 @ hex. cr
." OTG_HS_DEVICE_OTG_HS_DOEPTSIZ3: " OTG_HS_DEVICE_OTG_HS_DOEPTSIZ3 @ hex. cr
." OTG_HS_DEVICE_OTG_HS_DOEPTSIZ4: " OTG_HS_DEVICE_OTG_HS_DOEPTSIZ4 @ hex. cr
." OTG_HS_DEVICE_OTG_HS_DIEPTSIZ6: " OTG_HS_DEVICE_OTG_HS_DIEPTSIZ6 @ hex. cr
." OTG_HS_DEVICE_OTG_HS_DTXFSTS6: " OTG_HS_DEVICE_OTG_HS_DTXFSTS6 @ hex. cr
." OTG_HS_DEVICE_OTG_HS_DIEPTSIZ7: " OTG_HS_DEVICE_OTG_HS_DIEPTSIZ7 @ hex. cr
." OTG_HS_DEVICE_OTG_HS_DTXFSTS7: " OTG_HS_DEVICE_OTG_HS_DTXFSTS7 @ hex. cr
." OTG_HS_DEVICE_OTG_HS_DOEPCTL4: " OTG_HS_DEVICE_OTG_HS_DOEPCTL4 @ hex. cr
." OTG_HS_DEVICE_OTG_HS_DOEPCTL5: " OTG_HS_DEVICE_OTG_HS_DOEPCTL5 @ hex. cr
." OTG_HS_DEVICE_OTG_HS_DOEPCTL6: " OTG_HS_DEVICE_OTG_HS_DOEPCTL6 @ hex. cr
." OTG_HS_DEVICE_OTG_HS_DOEPCTL7: " OTG_HS_DEVICE_OTG_HS_DOEPCTL7 @ hex. cr
." OTG_HS_DEVICE_OTG_HS_DOEPTSIZ5: " OTG_HS_DEVICE_OTG_HS_DOEPTSIZ5 @ hex. cr
." OTG_HS_DEVICE_OTG_HS_DOEPTSIZ6: " OTG_HS_DEVICE_OTG_HS_DOEPTSIZ6 @ hex. cr
." OTG_HS_DEVICE_OTG_HS_DOEPTSIZ7: " OTG_HS_DEVICE_OTG_HS_DOEPTSIZ7 @ hex. cr
;

: OTG_HS_PWRCLK. cr
." OTG_HS_PWRCLK_OTG_HS_PCGCR: " OTG_HS_PWRCLK_OTG_HS_PCGCR @ hex. cr
;

